v 20100214 2
C 40700 40900 1 0 0 atmega32a.sym
{
T 41100 50850 5 10 0 0 0 0 1
device=ATmega32a
T 41100 51050 5 10 0 0 0 0 1
footprint=DIP40
T 44700 50500 5 10 1 1 0 6 1
refdes=U1
T 42400 42500 5 10 1 1 0 0 1
value=atmega32
}
C 52400 48700 1 0 1 DS1307-1.sym
{
T 50700 50800 5 10 1 1 0 0 1
refdes=U2
T 52100 51150 5 10 0 0 0 6 1
device=ds1307
T 52100 51350 5 10 0 0 0 6 1
footprint=DIP8
T 51100 48800 5 10 1 1 0 0 1
value=DS1307
}
C 51900 47000 1 0 1 24Cxx-1.sym
{
T 51600 48150 5 10 0 0 0 6 1
device=24Cxx
T 50900 48000 5 10 1 1 0 6 1
refdes=U3
T 51600 48350 5 10 0 0 0 6 1
footprint=DIP8
T 51100 48100 5 10 1 1 0 0 1
value=24C1024
}
C 51700 37500 1 0 1 FT232BM.sym
{
T 52591 39948 5 10 0 0 0 6 1
device=FT232BM
T 52591 40148 5 10 0 0 0 6 1
footprint=QFP32_7
T 52541 39848 5 10 1 1 0 6 1
refdes=U4
T 51700 37500 5 10 1 1 0 0 1
value=FT232BM
}
C 30300 49900 1 0 0 connector3-1.sym
{
T 32100 50800 5 10 0 0 0 0 1
device=CONNECTOR_3
T 30300 51000 5 10 1 1 0 0 1
refdes=CONN1
T 30300 51200 5 10 1 1 0 0 1
value=DS18B20
T 30300 49900 5 10 0 0 0 0 1
footprint=JUMPER3
}
C 56600 37700 1 0 1 usb.sym
{
T 56400 39100 5 10 1 1 0 6 1
refdes=CONN2
T 56200 39300 5 10 1 1 0 6 1
device=USB
T 56200 50350 5 10 0 0 0 6 1
footprint=conn_usb2
}
C 30300 48000 1 0 0 connector2-1.sym
{
T 30500 49000 5 10 0 0 0 0 1
device=CONNECTOR_2
T 30300 48800 5 10 1 1 0 0 1
refdes=CONN3
T 30300 49100 5 10 1 1 0 0 1
value=Photo
T 30300 48000 5 10 0 0 0 0 1
footprint=JUMPER2
}
C 30300 45200 1 0 0 load.sym
{
T 30300 46500 5 10 1 1 0 0 1
device=Load
T 30300 46300 5 10 1 1 0 0 1
refdes=CONN4
T 30300 45200 5 10 0 0 0 0 1
footprint=JUMPER3
}
C 30200 36500 1 0 0 connector2-1.sym
{
T 30400 37500 5 10 1 1 0 0 1
device=Ph
T 30200 37300 5 10 1 1 0 0 1
refdes=CONN5
T 30200 36500 5 10 0 0 0 0 1
footprint=JUMPER2
}
C 30200 35000 1 0 0 connector2-1.sym
{
T 30400 36000 5 10 1 1 0 0 1
device=Redox
T 30200 35800 5 10 1 1 0 0 1
refdes=CONN6
T 30200 35000 5 10 0 0 0 0 1
footprint=JUMPER2
}
N 32000 45400 34000 45400 4
C 33900 33400 1 0 0 gnd-1.sym
C 34100 50900 1 0 0 vcc-1.sym
{
T 34500 51100 5 10 1 1 0 0 1
netname=+5V
}
N 32000 50400 34000 50400 4
N 34000 33700 34000 50400 4
C 35700 34500 1 0 0 lcd.sym
{
T 35800 40700 5 10 1 1 0 0 1
refdes=LCD1
T 35800 40900 5 10 0 0 0 0 1
device=wg12864
T 35700 34500 5 10 0 0 0 0 1
footprint=JUMPER20
}
U 34700 49400 34700 43700 10 -1
U 34700 43700 34700 37500 10 -1
U 34700 37500 34700 35300 10 -1
C 34500 49600 1 270 0 busripper-1.sym
{
T 34500 50000 5 8 0 0 0 0 1
device=none
T 34100 49700 5 10 1 1 0 0 1
netname=D_Temp
}
C 34500 48900 1 270 0 busripper-1.sym
{
T 34500 49300 5 8 0 0 0 0 1
device=none
T 34100 49000 5 10 1 1 0 0 1
netname=A_Photo
}
C 34500 47700 1 270 0 busripper-1.sym
{
T 34500 48100 5 8 0 0 0 0 1
device=none
T 33900 47800 5 10 1 1 0 0 1
netname=D_sw1
}
C 34500 46400 1 270 0 busripper-1.sym
{
T 34500 46800 5 8 0 0 0 0 1
device=none
T 33900 46500 5 10 1 1 0 0 1
netname=A_sw1
}
C 34500 44900 1 270 0 busripper-1.sym
{
T 34500 45300 5 8 0 0 0 0 1
device=none
T 33900 45000 5 10 1 1 0 0 1
netname=D_sw2
}
C 34500 43600 1 270 0 busripper-1.sym
{
T 34500 44000 5 8 0 0 0 0 1
device=none
T 33900 43700 5 10 1 1 0 0 1
netname=A_sw2
}
C 34500 42000 1 270 0 busripper-1.sym
{
T 34500 42400 5 8 0 0 0 0 1
device=none
T 33900 42100 5 10 1 1 0 0 1
netname=D_sw3
}
C 34500 40700 1 270 0 busripper-1.sym
{
T 34500 41100 5 8 0 0 0 0 1
device=none
T 33900 40800 5 10 1 1 0 0 1
netname=A_sw3
}
C 34500 38700 1 270 0 busripper-1.sym
{
T 34500 39100 5 8 0 1 0 0 1
device=none
T 33900 38800 5 10 1 1 0 0 1
netname=D_pwm
}
C 34500 38400 1 270 0 busripper-1.sym
{
T 34500 38800 5 8 0 0 0 0 1
device=none
T 34100 38500 5 10 1 1 0 0 1
netname=Taho
}
C 34500 37000 1 270 0 busripper-1.sym
{
T 34500 37400 5 8 0 0 0 0 1
device=none
T 34100 37100 5 10 1 1 0 0 1
netname=A_Ph
}
C 34500 34800 1 270 0 busripper-1.sym
{
T 34500 35200 5 8 0 0 0 0 1
device=none
T 33800 34900 5 10 1 1 0 0 1
netname=A_Redox
}
U 38500 40500 38500 46200 10 -1
U 38500 46200 38500 49400 10 -1
U 38500 40500 38500 35400 10 -1
U 34700 49400 38500 49400 10 -1
N 37400 39500 38300 39500 4
{
T 37400 39500 5 10 0 0 0 0 1
netname=LCD_DI
}
C 38300 39500 1 270 0 busripper-1.sym
{
T 38300 39900 5 8 0 0 0 0 1
device=none
T 37600 39600 5 10 1 1 0 0 1
netname=LCD_DI
}
N 37400 39200 38300 39200 4
{
T 37400 39200 5 10 0 0 0 0 1
netname=LCD_RW
}
C 38300 39200 1 270 0 busripper-1.sym
{
T 38300 39600 5 8 0 0 0 0 1
device=none
T 37600 39300 5 10 1 1 0 0 1
netname=LCD_RW
}
N 37400 38900 38300 38900 4
{
T 37400 38900 5 10 0 0 0 0 1
netname=LCD_E
}
C 38300 38900 1 270 0 busripper-1.sym
{
T 38300 39300 5 8 0 0 0 0 1
device=none
T 37600 39000 5 10 1 1 0 0 1
netname=LCD_E
}
N 37400 38600 38300 38600 4
{
T 37400 38600 5 10 0 0 0 0 1
netname=LCD_D0
}
C 38300 38600 1 270 0 busripper-1.sym
{
T 38300 39000 5 8 0 0 0 0 1
device=none
T 37600 38700 5 10 1 1 0 0 1
netname=LCD_D0
}
N 37400 38300 38300 38300 4
{
T 37400 38300 5 10 0 0 0 0 1
netname=LCD_D1
}
C 38300 38300 1 270 0 busripper-1.sym
{
T 38300 38700 5 8 0 0 0 0 1
device=none
T 37600 38400 5 10 1 1 0 0 1
netname=LCD_D1
}
N 37400 38000 38300 38000 4
{
T 37400 38000 5 10 0 0 0 0 1
netname=LCD_D2
}
C 38300 38000 1 270 0 busripper-1.sym
{
T 38300 38400 5 8 0 0 0 0 1
device=none
T 37600 38100 5 10 1 1 0 0 1
netname=LCD_D2
}
N 37400 37700 38300 37700 4
{
T 37400 37700 5 10 0 0 0 0 1
netname=LCD_D3
}
C 38300 37700 1 270 0 busripper-1.sym
{
T 38300 38100 5 8 0 0 0 0 1
device=none
T 37600 37800 5 10 1 1 0 0 1
netname=LCD_D3
}
N 37400 37400 38300 37400 4
{
T 37400 37400 5 10 0 0 0 0 1
netname=LCD_D4
}
C 38300 37400 1 270 0 busripper-1.sym
{
T 38300 37800 5 8 0 0 0 0 1
device=none
T 37600 37500 5 10 1 1 0 0 1
netname=LCD_D4
}
N 37400 37100 38300 37100 4
{
T 37400 37100 5 10 0 0 0 0 1
netname=LCD_D5
}
C 38300 37100 1 270 0 busripper-1.sym
{
T 38300 37500 5 8 0 0 0 0 1
device=none
T 37600 37200 5 10 1 1 0 0 1
netname=LCD_D5
}
N 37400 36800 38300 36800 4
{
T 37400 36800 5 10 0 0 0 0 1
netname=LCD_D6
}
C 38300 36800 1 270 0 busripper-1.sym
{
T 38300 37200 5 8 0 0 0 0 1
device=none
T 37600 36900 5 10 1 1 0 0 1
netname=LCD_D6
}
N 37400 36500 38300 36500 4
{
T 37400 36500 5 10 0 0 0 0 1
netname=LCD_D7
}
C 38300 36500 1 270 0 busripper-1.sym
{
T 38300 36900 5 8 0 0 0 0 1
device=none
T 37600 36600 5 10 1 1 0 0 1
netname=LCD_D7
}
N 37400 36200 38300 36200 4
{
T 37400 36200 5 10 0 0 0 0 1
netname=LCD_CS1
}
C 38300 36200 1 270 0 busripper-1.sym
{
T 38300 36600 5 8 0 0 0 0 1
device=none
T 37600 36300 5 10 1 1 0 0 1
netname=LCD_CS1
}
N 37400 35900 38300 35900 4
{
T 37400 35900 5 10 0 0 0 0 1
netname=LCD_CS2
}
C 38300 35900 1 270 0 busripper-1.sym
{
T 38300 36300 5 8 0 0 0 0 1
device=none
T 37600 36000 5 10 1 1 0 0 1
netname=LCD_CS2
}
C 50300 40600 1 0 0 pcf8574.sym
{
T 52500 46000 5 10 1 1 0 6 1
refdes=U5
T 50700 46400 5 10 0 0 0 0 1
device=PCF8574
T 50700 46600 5 10 0 0 0 0 1
footprint=DIP16
T 50900 41400 5 10 1 1 0 0 1
value=PCF8574
}
N 45000 49500 50400 49500 4
N 45000 49100 50400 49100 4
N 50600 47300 50000 47300 4
N 49800 47100 50600 47100 4
N 50000 41800 50000 49500 4
N 50000 41800 50400 41800 4
N 49800 42000 49800 49100 4
N 49800 42000 50400 42000 4
N 45000 45300 49600 45300 4
N 49600 45300 49600 46400 4
N 49600 46400 52700 46400 4
N 52700 46400 52700 45500 4
N 52700 45500 52400 45500 4
C 55500 42400 1 0 1 connector9-1.sym
{
T 55700 45500 5 10 1 1 0 6 1
device=keyb_1x8
T 55600 45300 5 10 1 1 0 6 1
refdes=CONN7
T 55500 42400 5 10 0 0 0 0 1
footprint=JUMPER9
}
N 52400 45000 53800 45000 4
N 52400 44500 52500 44500 4
N 52500 44500 52500 44700 4
N 52500 44700 53800 44700 4
N 52400 44000 52600 44000 4
N 52600 44000 52600 44400 4
N 52600 44400 53800 44400 4
N 52400 43500 52800 43500 4
N 52800 43500 52800 44100 4
N 52800 44100 53800 44100 4
N 52400 43000 53000 43000 4
N 53000 43000 53000 43800 4
N 53000 43800 53800 43800 4
N 52400 42500 53200 42500 4
N 53200 42500 53200 43500 4
N 53200 43500 53800 43500 4
N 52400 42000 53400 42000 4
N 53400 42000 53400 43200 4
N 53400 43200 53800 43200 4
N 52400 41500 53600 41500 4
N 53600 41500 53600 42900 4
N 53600 42900 53800 42900 4
C 51600 40300 1 0 0 gnd-1.sym
N 51700 40600 51700 40700 4
N 51700 40700 53800 40700 4
N 53800 40700 53800 42600 4
N 34300 50900 34300 50700 4
U 38500 49400 38500 49700 10 1
C 43000 40400 1 0 0 gnd-1.sym
N 42700 41000 42700 40900 4
N 42700 40900 43100 40900 4
N 43100 40700 43100 41000 4
U 38500 40100 47500 40100 10 -1
C 51500 46500 1 0 0 vcc-1.sym
{
T 51900 46700 5 10 1 1 0 0 1
netname=+5V
}
C 49900 50400 1 0 0 vcc-1.sym
{
T 50300 50600 5 10 1 1 0 0 1
netname=+5V
}
C 42900 51500 1 0 0 vcc-1.sym
{
T 43300 51700 5 10 1 1 0 0 1
netname=+5V
}
N 43100 51500 43100 50700 4
N 50100 50400 50100 50300 4
N 50100 50300 50400 50300 4
N 51700 46500 51700 46300 4
C 52400 48600 1 0 0 gnd-1.sym
N 52500 49100 52500 48900 4
C 53600 47900 1 90 0 battery-1.sym
{
T 53100 47900 5 10 1 1 90 0 1
device=CR2032
T 52900 48200 5 10 1 1 90 0 1
refdes=B1
T 52300 48200 5 10 0 0 90 0 1
symversion=0.1
T 53800 48100 5 10 1 1 90 0 1
value=3V
T 53600 47900 5 10 0 0 0 0 1
footprint=conn_cr2032
}
C 53300 47500 1 0 0 gnd-1.sym
N 52400 49500 53400 49500 4
N 53400 48600 53400 49500 4
N 53400 47900 53400 47800 4
C 53200 49800 1 90 0 crystal-1.sym
{
T 52700 50000 5 10 0 0 90 0 1
device=CRYSTAL
T 52900 50000 5 10 1 1 90 0 1
refdes=Q1
T 52500 50000 5 10 0 0 90 0 1
symversion=0.1
T 53400 49900 5 10 1 1 90 0 1
value=32768
T 53200 49800 5 10 0 0 0 0 1
footprint=quartz_clock
}
N 52600 50500 52600 50300 4
N 52600 50300 52400 50300 4
N 52600 49800 52600 49900 4
N 52600 49900 52400 49900 4
C 40100 38500 1 90 0 resistor-variable-2.sym
{
T 39700 39050 5 10 1 1 90 0 1
refdes=R1
T 39200 39300 5 10 0 1 90 0 1
device=VARIABLE_RESISTOR
T 39700 39300 5 10 1 1 90 0 1
value=15k
T 40100 38500 5 10 0 0 0 0 1
footprint=res_var
}
N 37400 39800 38700 39800 4
N 38700 39800 38700 39000 4
N 38700 39000 39500 39000 4
C 37600 40900 1 180 0 gnd-1.sym
N 37400 40400 37500 40400 4
N 37500 40400 37500 40600 4
C 37600 40500 1 0 0 vcc-1.sym
{
T 38000 40700 5 10 1 1 0 0 1
netname=+5V
}
N 37800 40500 37800 40100 4
N 37800 40100 37400 40100 4
N 40800 49100 38700 49100 4
{
T 40800 49100 5 10 0 0 0 0 1
netname=A_sw1
}
C 38700 49100 1 180 0 busripper-1.sym
{
T 38700 49500 5 8 0 0 0 0 1
device=none
T 38700 49200 5 10 1 1 0 0 1
netname=A_sw1
}
N 40800 48700 38700 48700 4
{
T 40800 48700 5 10 0 0 0 0 1
netname=A_sw2
}
C 38700 48700 1 180 0 busripper-1.sym
{
T 38700 49100 5 8 0 0 0 0 1
device=none
T 38700 48800 5 10 1 1 0 0 1
netname=A_sw2
}
N 40800 48300 38700 48300 4
{
T 40800 48300 5 10 0 0 0 0 1
netname=A_sw3
}
C 38700 48300 1 180 0 busripper-1.sym
{
T 38700 48700 5 8 0 0 0 0 1
device=none
T 38700 48400 5 10 1 1 0 0 1
netname=A_sw3
}
N 40800 47900 38700 47900 4
{
T 40800 47900 5 10 0 0 0 0 1
netname=A_ph
}
C 38700 47900 1 180 0 busripper-1.sym
{
T 38700 48300 5 8 0 0 0 0 1
device=none
T 38700 48000 5 10 1 1 0 0 1
netname=A_Ph
}
N 40800 47500 38700 47500 4
{
T 40800 47500 5 10 0 0 0 0 1
netname=A_Redox
}
C 38700 47500 1 180 0 busripper-1.sym
{
T 38700 47900 5 8 0 0 0 0 1
device=none
T 38700 47600 5 10 1 1 0 0 1
netname=A_Redox
}
N 40800 49500 38700 49500 4
{
T 40800 49500 5 10 0 0 0 0 1
netname=A_Photo
}
C 38700 49500 1 90 0 busripper-1.sym
{
T 38700 49900 5 8 0 0 0 0 1
device=none
T 38700 49600 5 10 1 1 0 0 1
netname=A_Photo
}
C 33700 45400 1 90 0 diode-1.sym
{
T 33100 45800 5 10 0 0 90 0 1
device=DIODE
T 33200 45700 5 10 1 1 90 0 1
refdes=D1
T 33700 45400 5 10 0 0 0 0 1
footprint=SOD123
T 32700 46000 5 10 1 1 0 0 1
value=SD101
}
C 33700 46500 1 90 0 diode-1.sym
{
T 33100 46900 5 10 0 0 90 0 1
device=DIODE
T 33200 46800 5 10 1 1 90 0 1
refdes=D2
T 33700 46500 5 10 0 0 0 0 1
footprint=SOD123
T 32800 47200 5 10 1 1 0 0 1
value=SD101
}
C 32500 46300 1 0 0 resistor-2.sym
{
T 32900 46650 5 10 0 0 0 0 1
device=RESISTOR
T 32700 46600 5 10 1 1 0 0 1
refdes=R2
T 32500 46300 5 10 0 0 0 0 1
footprint=1206
T 33100 46600 5 10 1 1 0 0 1
value=10k
}
N 33500 46300 33500 46500 4
N 33400 46400 33500 46400 4
N 32000 45700 32300 45700 4
N 32300 45700 32300 46400 4
N 32300 46400 32500 46400 4
N 33500 46400 34500 46400 4
{
T 33500 46400 5 10 0 0 0 0 1
netname=A_sw1
}
N 32000 50700 35100 50700 4
N 33500 47400 35100 47400 4
N 32000 46000 32100 46000 4
N 32100 46000 32100 47700 4
N 32100 47700 34500 47700 4
{
T 32100 47700 5 10 0 0 0 0 1
netname=D_sw1
}
C 30300 42400 1 0 0 load.sym
{
T 30300 43700 5 10 1 1 0 0 1
device=Load
T 30300 43500 5 10 1 1 0 0 1
refdes=CONN8
T 30300 42400 5 10 0 0 0 0 1
footprint=JUMPER3
}
C 33600 42600 1 90 0 diode-1.sym
{
T 33000 43000 5 10 0 0 90 0 1
device=DIODE
T 33100 42900 5 10 1 1 90 0 1
refdes=D3
T 33600 42600 5 10 0 0 0 0 1
footprint=SOD123
T 32600 43200 5 10 1 1 0 0 1
value=SD101
}
C 33600 43700 1 90 0 diode-1.sym
{
T 33000 44100 5 10 0 0 90 0 1
device=DIODE
T 33100 44000 5 10 1 1 90 0 1
refdes=D4
T 33600 43700 5 10 0 0 0 0 1
footprint=SOD123
T 32800 44400 5 10 1 1 0 0 1
value=SD101
}
C 32400 43500 1 0 0 resistor-2.sym
{
T 32800 43850 5 10 0 0 0 0 1
device=RESISTOR
T 32600 43800 5 10 1 1 0 0 1
refdes=R3
T 32400 43500 5 10 0 0 0 0 1
footprint=1206
T 33000 43800 5 10 1 1 0 0 1
value=10k
}
N 33400 43500 33400 43700 4
N 33300 43600 33400 43600 4
N 32000 42900 32300 42900 4
N 32300 42900 32300 43600 4
N 32300 43600 32400 43600 4
N 32000 43200 32100 43200 4
N 32100 43200 32100 44900 4
C 30200 39500 1 0 0 load.sym
{
T 30200 40800 5 10 1 1 0 0 1
device=Load
T 30200 40600 5 10 1 1 0 0 1
refdes=CONN9
T 30200 39500 5 10 0 0 0 0 1
footprint=JUMPER3
}
C 33500 39700 1 90 0 diode-1.sym
{
T 32900 40100 5 10 0 0 90 0 1
device=DIODE
T 33000 40000 5 10 1 1 90 0 1
refdes=D5
T 33500 39700 5 10 0 0 0 0 1
footprint=SOD123
T 32500 40300 5 10 1 1 0 0 1
value=SD101
}
C 33500 40800 1 90 0 diode-1.sym
{
T 32900 41200 5 10 0 0 90 0 1
device=DIODE
T 33000 41100 5 10 1 1 90 0 1
refdes=D6
T 33500 40800 5 10 0 0 0 0 1
footprint=SOD123
T 32600 41500 5 10 1 1 0 0 1
value=SD101
}
C 32300 40600 1 0 0 resistor-2.sym
{
T 32700 40950 5 10 0 0 0 0 1
device=RESISTOR
T 32500 40900 5 10 1 1 0 0 1
refdes=R4
T 32300 40600 5 10 0 0 0 0 1
footprint=1206
T 32900 40900 5 10 1 1 0 0 1
value=10k
}
N 33300 40600 33300 40800 4
N 33200 40700 33300 40700 4
N 31900 40000 32200 40000 4
N 32200 40000 32200 40700 4
N 32200 40700 32300 40700 4
N 31900 40300 32000 40300 4
N 32000 40300 32000 42000 4
N 32100 44900 34500 44900 4
{
T 32100 44900 5 10 0 0 0 0 1
netname=D_sw2
}
N 33400 43600 34500 43600 4
{
T 33400 43600 5 10 0 0 0 0 1
netname=A_sw2
}
N 32000 42600 34000 42600 4
N 33400 44600 35100 44600 4
N 32000 42000 34500 42000 4
{
T 32000 42000 5 10 0 0 0 0 1
netname=D_sw3
}
N 33300 41700 35100 41700 4
N 33300 40700 34500 40700 4
{
T 33300 40700 5 10 0 0 0 0 1
netname=A_sw3
}
N 31900 39700 34000 39700 4
C 33600 47900 1 90 0 diode-1.sym
{
T 33000 48300 5 10 0 0 90 0 1
device=DIODE
T 33100 48200 5 10 1 1 90 0 1
refdes=D7
T 33600 47900 5 10 0 0 0 0 1
footprint=SOD123
T 32600 48500 5 10 1 1 0 0 1
value=SD101
}
C 33600 49000 1 90 0 diode-1.sym
{
T 33000 49400 5 10 0 0 90 0 1
device=DIODE
T 33100 49300 5 10 1 1 90 0 1
refdes=D8
T 33600 49000 5 10 0 0 0 0 1
footprint=SOD123
T 32700 49700 5 10 1 1 0 0 1
value=SD101
}
C 32400 48800 1 0 0 resistor-2.sym
{
T 32800 49150 5 10 0 0 0 0 1
device=RESISTOR
T 32600 49100 5 10 1 1 0 0 1
refdes=R5
T 32400 48800 5 10 0 0 0 0 1
footprint=1206
T 33000 49100 5 10 1 1 0 0 1
value=10k
}
N 33400 48800 33400 49000 4
N 33300 48900 33400 48900 4
N 32200 48900 32400 48900 4
N 32000 50100 34500 50100 4
N 34500 50100 34500 49600 4
{
T 34500 50100 5 10 0 0 0 0 1
netname=D_Temp
}
N 33400 49900 33400 50700 4
N 32000 48200 32100 48200 4
N 32100 48200 32100 47900 4
N 32100 47900 34000 47900 4
N 32000 48500 32200 48500 4
N 32200 48500 32200 48900 4
N 33400 48900 34500 48900 4
{
T 33400 48900 5 10 0 0 0 0 1
netname=A_Photo
}
C 30200 37900 1 0 0 connector3-1.sym
{
T 30200 39200 5 10 1 1 0 0 1
device=Cooler
T 30200 39000 5 10 1 1 0 0 1
refdes=CONN10
T 30200 37900 5 10 0 0 0 0 1
footprint=JUMPER3
}
N 31900 38700 34500 38700 4
{
T 31900 38700 5 10 0 0 0 0 1
netname=D_pwm
}
N 31900 38400 34500 38400 4
{
T 34100 38500 5 10 0 1 0 0 1
netname=Taho
}
N 31900 38100 34000 38100 4
C 33500 36000 1 90 0 diode-1.sym
{
T 32900 36400 5 10 0 0 90 0 1
device=DIODE
T 33000 36300 5 10 1 1 90 0 1
refdes=D9
T 33500 36000 5 10 0 0 0 0 1
footprint=SOD123
T 33500 36000 5 10 1 1 0 0 1
value=SD101
}
C 33500 37100 1 90 0 diode-1.sym
{
T 32900 37500 5 10 0 0 90 0 1
device=DIODE
T 33000 37400 5 10 1 1 90 0 1
refdes=D10
T 33500 37100 5 10 0 0 0 0 1
footprint=SOD123
T 32300 37600 5 10 1 1 0 0 1
value=SD101
}
C 32300 36900 1 0 0 resistor-2.sym
{
T 32700 37250 5 10 0 0 0 0 1
device=RESISTOR
T 32500 37200 5 10 1 1 0 0 1
refdes=R6
T 32300 36900 5 10 0 0 0 0 1
footprint=1206
T 32800 37200 5 10 1 1 0 0 1
value=10k
}
N 33300 36900 33300 37100 4
N 33200 37000 33300 37000 4
N 33300 38000 35100 38000 4
N 31900 37000 32300 37000 4
N 31900 36700 32500 36700 4
N 32500 36700 32500 36000 4
N 32500 36000 34000 36000 4
C 33500 33800 1 90 0 diode-1.sym
{
T 32900 34200 5 10 0 0 90 0 1
device=DIODE
T 33000 34100 5 10 1 1 90 0 1
refdes=D11
T 33500 33800 5 10 0 0 0 0 1
footprint=SOD123
T 32300 34300 5 10 1 1 0 0 1
value=SD101
}
C 33500 34900 1 90 0 diode-1.sym
{
T 32900 35300 5 10 0 0 90 0 1
device=DIODE
T 33000 35200 5 10 1 1 90 0 1
refdes=D12
T 33500 34900 5 10 0 0 0 0 1
footprint=SOD123
T 32500 35600 5 10 1 1 0 0 1
value=SD101
}
C 32300 34700 1 0 0 resistor-2.sym
{
T 32700 35050 5 10 0 0 0 0 1
device=RESISTOR
T 32500 35000 5 10 1 1 0 0 1
refdes=R7
T 32300 34700 5 10 0 0 0 0 1
footprint=1206
T 32900 35000 5 10 1 1 0 0 1
value=10k
}
N 33300 34700 33300 34900 4
N 33200 34800 33300 34800 4
N 32200 34800 32300 34800 4
N 33300 37000 34500 37000 4
{
T 33300 37000 5 10 0 0 0 0 1
netname=A_ph
}
U 34700 35300 34700 34600 10 0
N 33300 34800 34500 34800 4
{
T 33300 34800 5 10 0 0 0 0 1
netname=A_Redox
}
N 31900 35500 32200 35500 4
N 32200 35500 32200 34800 4
N 31900 35200 32000 35200 4
N 32000 35200 32000 33800 4
N 32000 33800 34000 33800 4
N 33300 35800 35100 35800 4
N 35100 35800 35100 50700 4
N 40800 46100 38700 46100 4
{
T 40800 46100 5 10 0 0 0 0 1
netname=LCD_D0
}
C 38700 46100 1 180 0 busripper-1.sym
{
T 38700 46500 5 8 0 0 0 0 1
device=none
T 38700 46200 5 10 1 1 0 0 1
netname=LCD_D0
}
N 40800 45700 38700 45700 4
{
T 40800 45700 5 10 0 0 0 0 1
netname=LCD_D1
}
C 38700 45700 1 180 0 busripper-1.sym
{
T 38700 46100 5 8 0 0 0 0 1
device=none
T 38700 45800 5 10 1 1 0 0 1
netname=LCD_D1
}
N 40800 45300 38700 45300 4
{
T 40800 45300 5 10 0 0 0 0 1
netname=LCD_D2
}
C 38700 45300 1 180 0 busripper-1.sym
{
T 38700 45700 5 8 0 0 0 0 1
device=none
T 38700 45400 5 10 1 1 0 0 1
netname=LCD_D2
}
N 40800 44900 38700 44900 4
{
T 40800 44900 5 10 0 0 0 0 1
netname=LCD_D3
}
C 38700 44900 1 180 0 busripper-1.sym
{
T 38700 45300 5 8 0 0 0 0 1
device=none
T 38700 45000 5 10 1 1 0 0 1
netname=LCD_D3
}
N 40800 44500 38700 44500 4
{
T 40800 44500 5 10 0 0 0 0 1
netname=LCD_D4
}
C 38700 44500 1 180 0 busripper-1.sym
{
T 38700 44900 5 8 0 0 0 0 1
device=none
T 38700 44600 5 10 1 1 0 0 1
netname=LCD_D4
}
N 40800 44100 38700 44100 4
{
T 40800 44100 5 10 0 0 0 0 1
netname=LCD_D5
}
C 38700 44100 1 180 0 busripper-1.sym
{
T 38700 44500 5 8 0 0 0 0 1
device=none
T 38700 44200 5 10 1 1 0 0 1
netname=LCD_D5
}
N 40800 43700 38700 43700 4
{
T 40800 43700 5 10 0 0 0 0 1
netname=LCD_D6
}
C 38700 43700 1 180 0 busripper-1.sym
{
T 38700 44100 5 8 0 0 0 0 1
device=none
T 38700 43800 5 10 1 1 0 0 1
netname=LCD_D6
}
N 40800 43300 38700 43300 4
{
T 40800 43300 5 10 0 0 0 0 1
netname=LCD_D7
}
C 38700 43300 1 180 0 busripper-1.sym
{
T 38700 43700 5 8 0 0 0 0 1
device=none
T 38700 43400 5 10 1 1 0 0 1
netname=LCD_D7
}
N 45000 45700 45600 45700 4
N 45600 38700 45600 45700 4
N 45600 38700 50400 38700 4
N 50400 38900 45900 38900 4
N 45900 38900 45900 46100 4
N 45900 46100 45000 46100 4
N 40800 47100 38700 47100 4
{
T 40800 47100 5 10 0 0 0 0 1
netname=D_Temp
}
C 38700 47100 1 180 0 busripper-1.sym
{
T 38700 47500 5 8 0 0 0 0 1
device=none
T 38700 47100 5 10 1 1 0 0 1
netname=D_Temp
}
U 47500 40100 47500 48500 10 -1
N 45000 48700 47300 48700 4
{
T 45000 48700 5 10 0 0 0 0 1
netname=LCD_DI
}
C 47300 48700 1 270 0 busripper-1.sym
{
T 47300 49100 5 8 0 0 0 0 1
device=none
T 46600 48800 5 10 1 1 0 0 1
netname=LCD_DI
}
N 45000 48300 47300 48300 4
{
T 45000 48300 5 10 0 0 0 0 1
netname=LCD_RW
}
C 47300 48300 1 270 0 busripper-1.sym
{
T 47300 48700 5 8 0 0 0 0 1
device=none
T 46600 48400 5 10 1 1 0 0 1
netname=LCD_RW
}
N 45000 47900 47300 47900 4
{
T 45000 47900 5 10 0 0 0 0 1
netname=LCD_E
}
C 47300 47900 1 270 0 busripper-1.sym
{
T 47300 48300 5 8 0 0 0 0 1
device=none
T 46600 48000 5 10 1 1 0 0 1
netname=LCD_E
}
N 45000 47500 47300 47500 4
{
T 45000 47500 5 10 0 0 0 0 1
netname=LCD_CS1
}
C 47300 47500 1 270 0 busripper-1.sym
{
T 47300 47900 5 8 0 0 0 0 1
device=none
T 46600 47600 5 10 1 1 0 0 1
netname=LCD_CS1
}
N 45000 47100 47300 47100 4
{
T 45000 47100 5 10 0 0 0 0 1
netname=LCD_CS2
}
C 47300 47100 1 270 0 busripper-1.sym
{
T 47300 47500 5 8 0 0 0 0 1
device=none
T 46600 47200 5 10 1 1 0 0 1
netname=LCD_CS2
}
N 45000 44500 47300 44500 4
{
T 45000 44500 5 10 0 0 0 0 1
netname=D_sw1
}
C 47300 44500 1 270 0 busripper-1.sym
{
T 47300 44900 5 8 0 0 0 0 1
device=none
T 46800 44600 5 10 1 1 0 0 1
netname=D_sw1
}
N 45000 44100 47300 44100 4
{
T 45000 44100 5 10 0 0 0 0 1
netname=D_sw2
}
C 47300 44100 1 270 0 busripper-1.sym
{
T 47300 44500 5 8 0 0 0 0 1
device=none
T 46800 44200 5 10 1 1 0 0 1
netname=D_sw2
}
N 45000 43700 47300 43700 4
{
T 45000 43700 5 10 0 0 0 0 1
netname=D_sw3
}
C 47300 43700 1 270 0 busripper-1.sym
{
T 47300 44100 5 8 0 0 0 0 1
device=none
T 46800 43800 5 10 1 1 0 0 1
netname=D_sw3
}
N 45000 44900 47300 44900 4
{
T 45000 44900 5 10 0 0 0 0 1
netname=Taho
}
C 47300 44900 1 270 0 busripper-1.sym
{
T 47300 45300 5 8 0 0 0 0 1
device=none
T 46800 45000 5 10 1 1 0 0 1
netname=Taho
}
C 55200 37400 1 0 0 gnd-1.sym
N 55300 37900 55300 37700 4
C 46400 42400 1 0 0 resistor-2.sym
{
T 46800 42750 5 10 0 0 0 0 1
device=RESISTOR
T 46600 42700 5 10 1 1 0 0 1
refdes=R8
T 46900 42700 5 10 1 1 0 0 1
value=4.7k
T 46400 42400 5 10 0 0 0 0 1
footprint=1206
}
N 48200 43000 48200 43500 4
N 45000 43300 45300 43300 4
N 45300 43300 45300 42500 4
N 45300 42500 46400 42500 4
N 47300 42500 47600 42500 4
N 48200 42000 48200 41800 4
C 47700 41100 1 180 0 busripper-1.sym
{
T 47700 41500 5 8 0 0 0 0 1
device=none
T 47700 41200 5 10 1 1 0 0 1
netname=D_pwm
}
C 38900 42500 1 0 0 capacitor-1.sym
{
T 39100 43200 5 10 0 0 0 0 1
device=CAPACITOR
T 39100 43000 5 10 1 1 0 0 1
refdes=C1
T 39100 43400 5 10 0 0 0 0 1
symversion=0.1
T 39700 43000 5 10 1 1 0 0 1
value=20p
T 38900 42500 5 10 0 0 0 0 1
footprint=1206
}
C 38900 41300 1 0 0 capacitor-1.sym
{
T 39100 42000 5 10 0 0 0 0 1
device=CAPACITOR
T 39100 41800 5 10 1 1 0 0 1
refdes=C2
T 39100 42200 5 10 0 0 0 0 1
symversion=0.1
T 39500 41300 5 10 1 1 0 0 1
value=20p
T 38900 41300 5 10 0 0 0 0 1
footprint=1206
}
C 40000 41600 1 90 0 crystal-1.sym
{
T 39500 41800 5 10 0 0 90 0 1
device=CRYSTAL
T 39700 41800 5 10 1 1 90 0 1
refdes=Q2
T 39300 41800 5 10 0 0 90 0 1
symversion=0.1
T 40200 41900 5 10 1 1 90 0 1
value=16MHz
T 40000 41600 5 10 0 0 0 0 1
footprint=crystal
}
N 39900 41500 39900 41600 4
N 39900 42700 39900 42300 4
N 39800 42700 40800 42700 4
N 40800 42300 40300 42300 4
N 40300 42300 40300 41500 4
N 39800 41500 40300 41500 4
C 38800 40900 1 0 0 gnd-1.sym
N 38900 41200 38900 42700 4
N 52400 49100 52500 49100 4
N 52600 49800 53100 49800 4
N 52600 50500 53100 50500 4
C 40300 51200 1 90 0 resistor-2.sym
{
T 39950 51600 5 10 0 0 90 0 1
device=RESISTOR
T 40000 51400 5 10 1 1 90 0 1
refdes=R9
T 40000 51900 5 10 1 1 90 0 1
value=10k
T 40300 51200 5 10 0 0 0 0 1
footprint=1206
}
C 40400 50100 1 90 0 capacitor-1.sym
{
T 39700 50300 5 10 0 0 90 0 1
device=CAPACITOR
T 39900 50300 5 10 1 1 90 0 1
refdes=C3
T 39500 50300 5 10 0 0 90 0 1
symversion=0.1
T 40000 50800 5 10 1 1 90 0 1
value=0.1
T 40400 50100 5 10 1 1 0 0 1
footprint=0805
}
C 40100 49700 1 0 0 gnd-1.sym
C 40000 52200 1 0 0 vcc-1.sym
{
T 40400 52400 5 10 1 1 0 0 1
netname=+5V
}
C 39600 50100 1 90 0 switch-pushbutton-no-1.sym
{
T 39300 50500 5 10 1 1 90 0 1
refdes=S1
T 39000 50500 5 10 0 0 90 0 1
device=SWITCH_PUSHBUTTON_NO
T 39600 50100 5 10 0 0 0 0 1
footprint=JUMPER2
}
N 40200 52200 40200 52100 4
N 40200 51200 40200 51000 4
N 40200 50100 40200 50000 4
N 39600 50100 40200 50100 4
N 40200 51100 40800 51100 4
N 40800 51100 40800 50000 4
{
T 40800 51100 5 10 0 0 0 0 1
netname=RST
}
U 38500 49700 38500 50100 10 1
N 39100 51100 40200 51100 4
N 39100 49900 39100 51100 4
N 39100 49900 38700 49900 4
C 38700 49900 1 90 0 busripper-1.sym
{
T 38700 50300 5 8 0 0 0 0 1
device=none
T 38700 50000 5 10 1 1 0 0 1
netname=RST
}
N 37400 35600 38300 35600 4
{
T 37400 35600 5 10 0 0 0 0 1
netname=RST
}
C 38300 35600 1 270 0 busripper-1.sym
{
T 38300 36000 5 8 0 0 0 0 1
device=none
T 37600 35700 5 10 1 1 0 0 1
netname=RST
}
C 39900 38100 1 0 0 gnd-1.sym
N 40000 38500 40000 38400 4
N 37400 35300 39200 35300 4
N 39200 35300 39200 39600 4
N 39200 39600 40000 39600 4
N 40000 39600 40000 39400 4
C 37500 33600 1 90 0 resistor-2.sym
{
T 37150 34000 5 10 0 0 90 0 1
device=RESISTOR
T 37200 33800 5 10 1 1 90 0 1
refdes=R10
T 37200 34200 5 10 1 1 90 0 1
value=100
T 37500 33600 5 10 0 0 0 0 1
footprint=1206
}
C 37300 33200 1 0 0 gnd-1.sym
N 37400 34700 37400 34500 4
N 37400 33600 37400 33500 4
C 39400 35100 1 0 0 vcc-1.sym
{
T 39800 35300 5 10 1 1 0 0 1
netname=+5V
}
N 37400 35000 39600 35000 4
N 39600 35000 39600 35100 4
C 52300 46800 1 0 0 gnd-1.sym
C 50200 43900 1 0 0 gnd-1.sym
N 50600 47500 50600 48400 4
N 50600 48400 52400 48400 4
N 52400 48400 52400 47100 4
N 51900 47700 52400 47700 4
N 51900 47500 52400 47500 4
N 51900 47300 52400 47300 4
N 50400 45500 50300 45500 4
N 50300 45500 50300 44200 4
N 50300 45000 50400 45000 4
N 50300 44500 50400 44500 4
N 40800 41700 40600 41700 4
N 40600 41700 40600 50800 4
N 40600 50800 42700 50800 4
N 42700 50800 42700 50700 4
C 42200 51000 1 0 0 inductor-1.sym
{
T 42400 51500 5 10 0 0 0 0 1
device=INDUCTOR
T 42400 51300 5 10 1 1 0 0 1
refdes=L1
T 42400 51700 5 10 0 0 0 0 1
symversion=0.1
T 42700 51300 5 10 1 1 0 0 1
value=10uH
T 42200 51000 5 10 0 0 0 0 1
footprint=ACY600
}
C 41300 51400 1 0 0 capacitor-1.sym
{
T 41500 52100 5 10 0 0 0 0 1
device=CAPACITOR
T 41500 51900 5 10 1 1 0 0 1
refdes=C4
T 41500 52300 5 10 0 0 0 0 1
symversion=0.1
T 41900 51900 5 10 1 1 0 0 1
value=0.1
T 41300 51400 5 10 0 0 0 0 1
footprint=0805
}
C 41200 51100 1 0 0 gnd-1.sym
C 42200 52200 1 0 1 capacitor-2.sym
{
T 42000 52900 5 10 0 0 0 6 1
device=POLARIZED_CAPACITOR
T 41700 52700 5 10 1 1 0 6 1
refdes=C5
T 42000 53100 5 10 0 0 0 6 1
symversion=0.1
T 42000 52700 5 10 1 1 0 0 1
value=10u
T 42200 52200 5 10 0 0 0 0 1
footprint=RCY300P
}
N 41300 51400 41300 52400 4
N 42200 50800 42200 52400 4
C 42100 37700 1 90 0 capacitor-1.sym
{
T 41400 37900 5 10 0 0 90 0 1
device=CAPACITOR
T 41600 37900 5 10 1 1 90 0 1
refdes=C6
T 41200 37900 5 10 0 0 90 0 1
symversion=0.1
T 41600 38400 5 10 1 1 90 0 1
value=0.1
T 42100 37700 5 10 0 0 0 0 1
footprint=0805
}
C 42800 37700 1 90 0 capacitor-1.sym
{
T 42100 37900 5 10 0 0 90 0 1
device=CAPACITOR
T 42300 37900 5 10 1 1 90 0 1
refdes=C7
T 41900 37900 5 10 0 0 90 0 1
symversion=0.1
T 42300 38400 5 10 1 1 90 0 1
value=0.1
T 42800 37700 5 10 0 0 0 0 1
footprint=0805
}
C 43500 37700 1 90 0 capacitor-1.sym
{
T 42800 37900 5 10 0 0 90 0 1
device=CAPACITOR
T 43000 37900 5 10 1 1 90 0 1
refdes=C8
T 42600 37900 5 10 0 0 90 0 1
symversion=0.1
T 43000 38400 5 10 1 1 90 0 1
value=0.1
T 43500 37700 5 10 0 0 0 0 1
footprint=0805
}
C 44200 37700 1 90 0 capacitor-1.sym
{
T 43500 37900 5 10 0 0 90 0 1
device=CAPACITOR
T 43700 37900 5 10 1 1 90 0 1
refdes=C9
T 43300 37900 5 10 0 0 90 0 1
symversion=0.1
T 43700 38400 5 10 1 1 90 0 1
value=0.1
T 44200 37700 5 10 0 0 0 0 1
footprint=0805
}
C 44900 37700 1 90 0 capacitor-1.sym
{
T 44200 37900 5 10 0 0 90 0 1
device=CAPACITOR
T 44400 37900 5 10 1 1 90 0 1
refdes=C10
T 44000 37900 5 10 0 0 90 0 1
symversion=0.1
T 44400 38400 5 10 1 1 90 0 1
value=0.1
T 44900 37700 5 10 0 0 0 0 1
footprint=0805
}
C 41300 38600 1 90 1 capacitor-2.sym
{
T 40600 38400 5 10 0 0 270 2 1
device=POLARIZED_CAPACITOR
T 40700 37900 5 10 1 1 90 2 1
refdes=C11
T 40400 38400 5 10 0 0 270 2 1
symversion=0.1
T 40800 38400 5 10 1 1 90 0 1
value=10u
T 41300 38600 5 10 0 0 0 0 1
footprint=RCY300P
}
C 42400 39200 1 0 0 vcc-1.sym
{
T 42800 39400 5 10 1 1 0 0 1
netname=+5V
}
C 42500 37100 1 0 0 gnd-1.sym
N 41100 38600 41100 38900 4
N 41100 38900 44700 38900 4
N 44700 38900 44700 38600 4
N 42600 39200 42600 38900 4
N 42600 38900 42600 38600 4
N 41900 38900 41900 38600 4
N 43300 38900 43300 38600 4
N 44000 38900 44000 38600 4
N 41100 37700 41100 37500 4
N 41100 37500 44700 37500 4
N 44700 37500 44700 37700 4
N 42600 37700 42600 37500 4
N 42600 37500 42600 37400 4
N 41900 37700 41900 37500 4
N 43300 37700 43300 37500 4
N 44000 37700 44000 37500 4
C 47000 50000 1 90 0 resistor-2.sym
{
T 46650 50400 5 10 0 0 90 0 1
device=RESISTOR
T 46700 50200 5 10 1 1 90 0 1
refdes=R11
T 46700 50600 5 10 1 1 90 0 1
value=4.7k
T 47000 50000 5 10 0 0 0 0 1
footprint=1206
}
C 47600 50000 1 90 0 resistor-2.sym
{
T 47250 50400 5 10 0 0 90 0 1
device=RESISTOR
T 47300 50200 5 10 1 1 90 0 1
refdes=R12
T 47300 50600 5 10 1 1 90 0 1
value=4.7k
T 47600 50000 5 10 0 0 0 0 1
footprint=1206
}
C 47000 51300 1 0 0 vcc-1.sym
{
T 47400 51500 5 10 1 1 0 0 1
netname=+5V
}
N 46900 50900 46900 51100 4
N 46900 51100 47500 51100 4
N 47500 51100 47500 50900 4
N 47200 51300 47200 51100 4
N 46900 50000 46900 49500 4
N 47500 50000 47500 49100 4
C 53900 36800 1 90 0 crystal-1.sym
{
T 53400 37000 5 10 0 0 90 0 1
device=CRYSTAL
T 53600 37000 5 10 1 1 90 0 1
refdes=Q3
T 53200 37000 5 10 0 0 90 0 1
symversion=0.1
T 53600 37300 5 10 1 1 90 0 1
value=6MHz
T 53900 36800 5 10 0 0 0 0 1
footprint=crystal
}
N 53000 37100 53300 37100 4
N 53300 37100 53300 36800 4
N 53300 36800 53800 36800 4
N 53000 37300 53300 37300 4
N 53300 37300 53300 37600 4
N 53800 37600 53800 37500 4
C 47200 36100 1 0 0 resistor-2.sym
{
T 47600 36450 5 10 0 0 0 0 1
device=RESISTOR
T 47400 36400 5 10 1 1 0 0 1
refdes=R13
T 47800 36400 5 10 1 1 0 0 1
value=470
T 47200 36100 5 10 0 0 270 0 1
footprint=1206
}
C 53200 38700 1 0 0 capacitor-1.sym
{
T 53400 39400 5 10 0 0 0 0 1
device=CAPACITOR
T 53400 39200 5 10 1 1 0 0 1
refdes=C12
T 53400 39600 5 10 0 0 0 0 1
symversion=0.1
T 53800 39200 5 10 1 1 0 0 1
value=33n
T 53200 38700 5 10 0 0 0 0 1
footprint=0805
}
N 53000 38900 53200 38900 4
N 54100 38900 55000 38900 4
N 55000 38900 55000 37900 4
N 55000 37900 55300 37900 4
N 53000 39300 53200 39300 4
N 53200 39500 53000 39500 4
C 50900 40200 1 0 0 vcc-1.sym
{
T 51300 40400 5 10 1 1 0 0 1
netname=+5V
}
N 50400 39300 50200 39300 4
N 50200 40100 53200 40100 4
N 51100 40200 51100 40100 4
C 50200 34500 1 0 0 gnd-1.sym
N 50400 35500 50300 35500 4
N 50300 35500 50300 34800 4
N 53000 35700 53500 35700 4
N 53500 35700 53500 34900 4
N 53500 34900 50300 34900 4
N 53000 35500 53500 35500 4
C 53600 38200 1 0 0 resistor-2.sym
{
T 54000 38550 5 10 0 0 0 0 1
device=RESISTOR
T 53800 38500 5 10 1 1 0 0 1
refdes=R14
T 54200 38500 5 10 1 1 0 0 1
value=27
T 53600 38200 5 10 0 0 0 0 1
footprint=1206
}
C 54000 37700 1 0 0 resistor-2.sym
{
T 54400 38050 5 10 0 0 0 0 1
device=RESISTOR
T 54200 38000 5 10 1 1 0 0 1
refdes=R15
T 54500 38000 5 10 1 1 0 0 1
value=27
T 54000 37700 5 10 0 0 0 0 1
footprint=1206
}
N 53000 38500 53600 38500 4
N 53600 38500 53600 38300 4
N 53000 38300 53500 38300 4
N 53500 38300 53500 37900 4
N 53500 37900 53800 37900 4
N 53800 37900 53800 37800 4
N 53800 37800 54000 37800 4
N 54500 38300 54500 38500 4
N 54500 38500 55300 38500 4
N 54900 37800 54900 38200 4
N 54900 38200 55300 38200 4
C 49400 40200 1 90 0 resistor-2.sym
{
T 49050 40600 5 10 0 0 90 0 1
device=RESISTOR
T 49100 40400 5 10 1 1 90 0 1
refdes=R16
T 49100 40900 5 10 1 1 90 0 1
value=470
T 49400 40200 5 10 0 0 0 0 1
footprint=1206
}
C 49500 39100 1 90 0 capacitor-1.sym
{
T 48800 39300 5 10 0 0 90 0 1
device=CAPACITOR
T 49000 39300 5 10 1 1 90 0 1
refdes=C13
T 48600 39300 5 10 0 0 90 0 1
symversion=0.1
T 49000 39800 5 10 1 1 90 0 1
value=0.1
T 49500 39100 5 10 0 0 0 0 1
footprint=0805
}
C 49100 41300 1 0 0 vcc-1.sym
C 49200 38300 1 0 0 gnd-1.sym
N 49300 41300 49300 41100 4
N 49300 40200 49300 40000 4
N 49300 39100 49300 38600 4
N 50400 39500 49800 39500 4
N 49800 39500 49800 40100 4
N 49800 40100 49300 40100 4
C 54500 36300 1 90 0 resistor-2.sym
{
T 54150 36700 5 10 0 0 90 0 1
device=RESISTOR
T 54200 36500 5 10 1 1 90 0 1
refdes=R17
T 54200 37000 5 10 1 1 90 0 1
value=1.5k
T 54500 36300 5 10 0 0 0 0 1
footprint=1206
}
N 53000 37900 53100 37900 4
N 53100 37900 53100 36300 4
N 53100 36300 54400 36300 4
N 54000 37800 54000 37400 4
N 54000 37400 54400 37400 4
N 54400 37400 54400 37200 4
C 55900 36200 1 90 0 resistor-2.sym
{
T 55550 36600 5 10 0 0 90 0 1
device=RESISTOR
T 55600 36400 5 10 1 1 90 0 1
refdes=R18
T 55600 36800 5 10 1 1 90 0 1
value=10k
T 55900 36200 5 10 0 0 0 0 1
footprint=1206
}
C 55900 35000 1 90 0 resistor-2.sym
{
T 55550 35400 5 10 0 0 90 0 1
device=RESISTOR
T 55600 35200 5 10 1 1 90 0 1
refdes=R19
T 55600 35600 5 10 1 1 90 0 1
value=15k
T 55900 35000 5 10 0 0 0 0 1
footprint=1206
}
C 55700 34500 1 0 0 gnd-1.sym
N 55800 36200 55800 35900 4
N 55800 35000 55800 34800 4
N 55300 38800 55100 38800 4
N 53200 39300 53200 40100 4
N 53000 37700 53200 37700 4
N 53200 37700 53200 36000 4
N 53200 36000 55800 36000 4
C 47200 35100 1 0 0 resistor-2.sym
{
T 47600 35450 5 10 0 0 0 0 1
device=RESISTOR
T 47400 35400 5 10 1 1 0 0 1
refdes=R20
T 47800 35400 5 10 1 1 0 0 1
value=220
T 47200 35100 5 10 0 0 270 0 1
footprint=1206
}
C 47200 35600 1 0 0 resistor-2.sym
{
T 47600 35950 5 10 0 0 0 0 1
device=RESISTOR
T 47400 35900 5 10 1 1 0 0 1
refdes=R21
T 47800 35900 5 10 1 1 0 0 1
value=220
T 47200 35600 5 10 0 0 270 0 1
footprint=1206
}
N 48100 35200 50100 35200 4
N 50100 35200 50100 36700 4
N 50100 36700 50400 36700 4
N 49900 35700 49900 36900 4
N 49900 36900 50400 36900 4
N 50200 36300 50200 40100 4
N 50200 36300 50400 36300 4
C 55100 34900 1 90 0 capacitor-1.sym
{
T 54400 35100 5 10 0 0 90 0 1
device=CAPACITOR
T 54600 35100 5 10 1 1 90 0 1
refdes=C14
T 54200 35100 5 10 0 0 90 0 1
symversion=0.1
T 54600 35500 5 10 1 1 90 0 1
value=27p
T 55100 34900 5 10 0 0 0 0 1
footprint=1206
}
C 54200 34900 1 90 0 capacitor-1.sym
{
T 53500 35100 5 10 0 0 90 0 1
device=CAPACITOR
T 53700 35100 5 10 1 1 90 0 1
refdes=C15
T 53300 35100 5 10 0 0 90 0 1
symversion=0.1
T 53700 35500 5 10 1 1 90 0 1
value=27p
T 54200 34900 5 10 0 0 0 0 1
footprint=1206
}
N 55100 38800 55100 37200 4
N 55100 37200 55800 37200 4
N 55800 37200 55800 37100 4
N 54000 34900 55800 34900 4
N 53500 36800 53500 35900 4
N 53500 35900 54000 35900 4
N 54000 35900 54000 35800 4
N 53300 37600 54900 37600 4
N 54900 37600 54900 35800 4
C 40700 34900 1 0 0 connector3-1.sym
{
T 40700 36200 5 10 1 1 0 0 1
device=Pwr
T 40700 36000 5 10 1 1 0 0 1
refdes=CONN11
T 40700 34900 5 10 0 0 0 0 1
footprint=JUMPER3
}
C 43200 35900 1 0 0 vcc-1.sym
{
T 43600 36100 5 10 1 1 0 0 1
netname=+5V
}
C 42600 34800 1 0 0 gnd-1.sym
N 42400 35700 42600 35700 4
N 42600 35700 42600 36800 4
N 42400 35400 43400 35400 4
N 43400 35400 43400 35900 4
N 42400 35100 42700 35100 4
C 44700 35200 1 0 0 connector4-1.sym
{
T 44700 36800 5 10 1 1 0 0 1
device=LEDS
T 44700 36600 5 10 1 1 0 0 1
refdes=CONN12
T 44700 35200 5 10 0 0 0 0 1
footprint=JUMPER4
}
N 48100 35700 49900 35700 4
N 46400 35700 47200 35700 4
N 46400 35400 47000 35400 4
N 47000 35400 47000 35200 4
N 47000 35200 47200 35200 4
C 46300 36500 1 0 0 vcc-1.sym
{
T 46700 36700 5 10 1 1 0 0 1
netname=+5V
}
N 46500 36500 46500 36300 4
N 46500 36300 46400 36300 4
N 46400 36000 47000 36000 4
N 47000 36000 47000 36200 4
N 47000 36200 47200 36200 4
N 48100 36200 48300 36200 4
N 48300 36200 48300 40400 4
N 48300 40400 47700 40400 4
{
T 47700 40500 5 10 1 1 0 0 1
netname=LED_1
}
C 47700 40400 1 180 0 busripper-1.sym
{
T 47700 40800 5 8 0 0 0 0 1
device=none
}
N 45000 46700 47300 46700 4
{
T 46600 46800 5 10 1 1 0 0 1
netname=LED_1
}
C 47300 46700 1 270 0 busripper-1.sym
{
T 47300 47100 5 8 0 0 0 0 1
device=none
}
T 45400 36100 9 10 1 0 0 0 1
LED_1
T 45400 35800 9 10 1 0 0 0 1
LED_TX
T 45400 35500 9 10 1 0 0 0 1
LED_RX
C 35300 44500 1 0 0 apvr_prog.sym
{
T 35400 47800 5 10 1 1 0 0 1
device=ATMEL PROG
T 35600 47600 5 10 1 1 0 0 1
refdes=CONN13
T 35400 47500 5 10 0 1 0 0 1
footprint=HEADER10_2
}
N 37000 47400 38300 47400 4
{
T 37600 47500 5 10 1 1 0 0 1
netname=LCD_D5
}
C 38300 47400 1 270 0 busripper-1.sym
{
T 38300 47800 5 8 0 0 0 0 1
device=none
}
N 37000 46800 38300 46800 4
{
T 37600 46900 5 10 1 1 0 0 1
netname=LCD_D7
}
C 38300 46800 1 270 0 busripper-1.sym
{
T 38300 47200 5 8 0 0 0 0 1
device=none
}
N 37000 45600 38300 45600 4
{
T 37900 45700 5 10 1 1 0 0 1
netname=RST
}
C 38300 45600 1 270 0 busripper-1.sym
{
T 38300 46000 5 8 0 0 0 0 1
device=none
}
N 37000 45300 38300 45300 4
{
T 37500 45400 5 10 1 1 0 0 1
netname=LCD_D6
}
C 38300 45300 1 270 0 busripper-1.sym
{
T 38300 45700 5 8 0 0 0 0 1
device=none
}
C 37200 47600 1 0 0 vcc-1.sym
{
T 37600 47800 5 10 1 1 0 0 1
netname=+5V
}
C 37100 44200 1 0 0 gnd-1.sym
N 37400 47600 37400 46500 4
N 37400 46500 37000 46500 4
N 37200 44500 37200 47100 4
N 37200 47100 37000 47100 4
C 47600 42000 1 0 0 npn-ebc.sym
{
T 48500 42500 5 10 0 0 0 0 1
device=NPN_TRANSISTOR
T 48500 42500 5 10 1 1 0 0 1
refdes=T1
T 47600 42000 5 10 0 0 0 0 1
footprint=TO92-1
}
N 42600 36800 44200 36800 4
N 45100 37200 44200 37200 4
N 44200 36800 44200 37200 4
N 45100 41400 47400 41400 4
N 45100 37200 45100 41400 4
C 45800 36900 1 0 0 connector4-1.sym
{
T 45800 38500 5 10 1 1 0 0 1
device=Serial
T 45800 38300 5 10 1 1 0 0 1
refdes=CONN20
T 45800 36900 5 10 0 0 0 0 1
footprint=JUMPER4
}
C 47400 36700 1 0 0 gnd-1.sym
C 47300 38200 1 0 0 vcc-1.sym
{
T 47000 38400 5 10 1 1 0 0 1
value=+5V
}
N 47500 38000 47500 38200 4
N 47500 37100 47500 37000 4
N 47500 37700 47800 37700 4
N 47800 37700 47800 38700 4
N 47500 37400 48000 37400 4
N 48000 37400 48000 38900 4
C 48100 41500 1 0 0 gnd-1.sym
C 48300 43500 1 90 0 resistor-2.sym
{
T 47950 43900 5 10 0 0 90 0 1
device=RESISTOR
T 48000 43700 5 10 1 1 90 0 1
refdes=R22
T 48000 44100 5 10 1 1 90 0 1
value=10k
T 48300 43500 5 10 0 0 90 0 1
footprint=1206
}
C 48200 43000 1 0 0 resistor-2.sym
{
T 48600 43350 5 10 0 0 0 0 1
device=RESISTOR
T 48400 43300 5 10 1 1 0 0 1
refdes=R23
T 48800 43300 5 10 1 1 0 0 1
value=10k
T 48200 43000 5 10 0 0 0 0 1
footprint=1206
}
N 48600 44200 48600 43500 4
N 48600 43500 49200 43500 4
N 49200 43500 49200 43100 4
N 49200 43100 49100 43100 4
N 48200 44400 48200 44800 4
N 47700 44800 49200 44800 4
{
T 47900 44900 5 10 1 1 0 0 1
netname=+12V
}
N 49200 44800 49200 44700 4
N 47400 41400 47400 43300 4
N 47400 43300 47700 43300 4
N 47700 43300 47700 44800 4
C 48600 44700 1 180 1 pnp-3.sym
{
T 49500 44200 5 10 0 0 180 6 1
device=PNP_TRANSISTOR
T 49500 44200 5 10 1 1 180 6 1
refdes=T2
T 48600 44700 5 10 0 0 0 0 1
footprint=TO92-1
}
N 48800 41100 48800 42700 4
N 48800 42700 49500 42700 4
N 49500 42700 49500 43600 4
N 49500 43600 49200 43600 4
N 49200 43600 49200 43700 4
N 47700 41100 48800 41100 4
{
T 47700 41100 5 10 0 0 0 0 1
netname=D_pwm
}
