v 20080127 1
C 40000 40000 0 0 0 title-A1.sym
C 46400 47500 1 0 0 ca3140.sym
{
T 47000 48500 5 10 1 1 0 0 1
device=CA3140
T 47100 48300 5 10 1 1 0 0 1
refdes=U1
T 47100 48900 5 10 0 0 0 0 1
symversion=0.1
T 46395 47595 5 10 0 1 0 0 1
footprint=DIP8
T 46400 47500 5 10 1 1 0 0 1
value=CA3140
}
C 49800 47700 1 0 0 tl081.sym
{
T 50400 48700 5 10 1 1 0 0 1
device=TL081
T 50500 48500 5 10 1 1 0 0 1
refdes=U2
T 50500 49100 5 10 0 0 0 0 1
symversion=0.1
T 49795 47795 5 10 0 1 0 0 1
footprint=DIP8
T 49800 47700 5 10 1 1 0 0 1
value=TL081
}
C 43500 48200 1 0 0 resistor-2.sym
{
T 43900 48550 5 10 0 0 0 0 1
device=RESISTOR
T 43700 48500 5 10 1 1 0 0 1
refdes=R1
T 44000 48500 5 10 1 1 0 0 1
value=4M7
T 43500 48200 5 10 0 1 0 0 1
footprint=ACY600
}
C 45200 47300 1 90 0 capacitor-1.sym
{
T 44500 47500 5 10 0 0 90 0 1
device=CAPACITOR
T 44700 47500 5 10 1 1 90 0 1
refdes=C1
T 44300 47500 5 10 0 0 90 0 1
symversion=0.1
T 44700 47900 5 10 1 1 90 0 1
value=2.2n
T 45200 47300 5 10 0 0 0 0 1
footprint=0805
}
C 42800 47800 1 0 0 BNC-1.sym
{
T 43150 48450 5 10 0 0 0 0 1
device=BNC
T 42800 48600 5 10 1 1 0 0 1
refdes=CONN1
}
C 44900 46800 1 0 0 gnd-1.sym
C 42800 46800 1 0 0 gnd-1.sym
C 46500 50200 1 0 0 vcc-1.sym
{
T 46900 50400 5 10 1 1 0 0 1
netname=+12V
}
C 46900 46700 1 180 0 vee-1.sym
{
T 46800 46500 5 10 1 1 0 0 1
netname=-12V
}
C 45300 47800 1 0 0 resistor-2.sym
{
T 45700 48150 5 10 0 0 0 0 1
device=RESISTOR
T 45500 48100 5 10 1 1 0 0 1
refdes=R2
T 45800 48100 5 10 1 1 0 0 1
value=100M
T 45300 47800 5 10 0 1 0 0 1
footprint=ACY600
}
C 46700 46900 1 0 0 resistor-2.sym
{
T 47100 47250 5 10 0 0 0 0 1
device=RESISTOR
T 46900 47200 5 10 1 1 0 0 1
refdes=R3
T 47300 47200 5 10 1 1 0 0 1
value=4.7k
T 46700 46900 5 10 0 1 0 0 1
footprint=ACY600
}
C 47100 46100 1 0 0 resistor-2.sym
{
T 47500 46450 5 10 0 0 0 0 1
device=RESISTOR
T 47300 46400 5 10 1 1 0 0 1
refdes=R4
T 47800 46400 5 10 1 1 0 0 1
value=2.2k
T 47100 46100 5 10 0 1 0 0 1
footprint=ACY600
}
N 43300 48300 43500 48300 4
N 45000 48300 45000 48200 4
N 45300 48300 45300 47900 4
N 44400 48300 46400 48300 4
N 46200 47900 46400 47900 4
N 42900 47800 42900 47100 4
N 45000 47300 45000 47100 4
C 44800 46200 1 270 0 resistor-variable-2.sym
{
T 45200 45650 5 10 1 1 270 0 1
refdes=R5
T 45700 45400 5 10 0 1 270 0 1
device=VARIABLE_RESISTOR
T 45200 46100 5 10 1 1 270 0 1
value=4.7k
}
C 47900 49900 1 180 0 resistor-variable-2.sym
{
T 47550 50100 5 10 1 1 180 0 1
refdes=R6
T 47100 49000 5 10 0 1 180 0 1
device=VARIABLE_RESISTOR
T 47700 50000 5 10 1 1 0 0 1
value=5k
}
N 47100 47600 47100 47500 4
N 47100 47500 47900 47500 4
N 47900 47500 47900 49800 4
N 47000 49800 46900 49800 4
N 46900 49800 46900 48600 4
N 46700 47600 46700 46700 4
N 47400 49300 47800 49300 4
N 47800 49300 47800 47000 4
N 47800 47000 47600 47000 4
C 44800 43900 1 0 0 gnd-1.sym
C 45000 44300 1 90 0 resistor-2.sym
{
T 44650 44700 5 10 0 0 90 0 1
device=RESISTOR
T 44700 44500 5 10 1 1 90 0 1
refdes=R7
T 44700 44900 5 10 1 1 90 0 1
value=1k
T 45000 44300 5 10 0 1 90 0 1
footprint=ACY600
}
N 44900 44300 44900 44200 4
N 44900 45300 44900 45200 4
C 46300 45500 1 0 0 capacitor-1.sym
{
T 46500 46200 5 10 0 0 0 0 1
device=CAPACITOR
T 46500 46000 5 10 1 1 0 0 1
refdes=C2
T 46500 46400 5 10 0 0 0 0 1
symversion=0.1
T 46900 46000 5 10 1 1 0 0 1
value=1u
T 46300 45500 5 10 0 0 0 0 1
footprint=0805
}
N 46300 45700 46300 47900 4
N 46300 45700 45400 45700 4
N 47400 48100 48300 48100 4
N 48000 48100 48000 45700 4
N 48000 45700 47200 45700 4
N 47100 46200 44900 46200 4
N 46700 50200 46700 48600 4
C 48300 48000 1 0 0 resistor-2.sym
{
T 48700 48350 5 10 0 0 0 0 1
device=RESISTOR
T 48500 48300 5 10 1 1 0 0 1
refdes=R8
T 48900 48300 5 10 1 1 0 0 1
value=47k
T 48300 48000 5 10 0 1 0 0 1
footprint=ACY600
}
N 49200 48100 49800 48100 4
C 49400 47000 1 90 0 resistor-2.sym
{
T 49050 47400 5 10 0 0 90 0 1
device=RESISTOR
T 49100 47200 5 10 1 1 90 0 1
refdes=R9
T 49100 47600 5 10 1 1 90 0 1
value=56k
T 49400 47000 5 10 0 1 90 0 1
footprint=ACY600
}
C 49200 46800 1 270 0 resistor-variable-2.sym
{
T 49600 46250 5 10 1 1 270 0 1
refdes=R10
T 50100 46000 5 10 0 1 270 0 1
device=VARIABLE_RESISTOR
T 49600 46800 5 10 1 1 270 0 1
value=100k
}
C 49500 45800 1 180 0 vee-1.sym
{
T 49400 45600 5 10 1 1 0 0 1
netname=-12V
}
N 49300 47900 49300 48100 4
N 49300 47000 49300 46800 4
N 49300 45900 49300 45800 4
N 49800 46300 49800 46900 4
N 49800 46900 49300 46900 4
N 50100 47800 50100 45900 4
N 50100 45900 49300 45900 4
N 50100 48800 50100 50200 4
N 50100 50200 46700 50200 4
C 50300 49100 1 0 0 resistor-2.sym
{
T 50700 49450 5 10 0 0 0 0 1
device=RESISTOR
T 50500 49400 5 10 1 1 0 0 1
refdes=R11
T 51000 49400 5 10 1 1 0 0 1
value=47k
T 50300 49100 5 10 0 1 0 0 1
footprint=ACY600
}
C 49500 48200 1 0 0 gnd-1.sym
N 49800 48500 49600 48500 4
N 49300 48100 49300 49200 4
N 49300 49200 50300 49200 4
N 50800 48300 51400 48300 4
N 51400 49200 51200 49200 4
C 51300 45700 1 0 0 gnd-1.sym
C 51500 47200 1 90 0 resistor-2.sym
{
T 51150 47600 5 10 0 0 90 0 1
device=RESISTOR
T 51200 47400 5 10 1 1 90 0 1
refdes=R12
T 51200 47800 5 10 1 1 90 0 1
value=4.7k
T 51500 47200 5 10 0 1 90 0 1
footprint=ACY600
}
C 51500 46100 1 90 0 resistor-2.sym
{
T 51150 46500 5 10 0 0 90 0 1
device=RESISTOR
T 51200 46300 5 10 1 1 90 0 1
refdes=R13
T 51200 46700 5 10 1 1 90 0 1
value=4.7k
T 51500 46100 5 10 0 1 90 0 1
footprint=ACY600
}
N 51400 48100 51400 49200 4
N 51400 47200 51400 47000 4
N 51400 46100 51400 46000 4
C 46200 44000 1 0 0 connector3-1.sym
{
T 46200 45300 5 10 1 1 0 0 1
device=POWER
T 46200 45100 5 10 1 1 0 0 1
refdes=CONN2
T 46200 44000 5 10 0 0 0 0 1
footprint=JUMPER3
}
C 47800 45000 1 0 0 vcc-1.sym
{
T 48200 45200 5 10 1 1 0 0 1
netname=+12V
}
C 48700 44700 1 0 0 vee-1.sym
{
T 48800 44900 5 10 1 1 180 0 1
netname=-12V
}
C 48000 43900 1 0 0 gnd-1.sym
N 48000 45000 48000 44800 4
N 48000 44800 47900 44800 4
N 48900 44700 48900 44500 4
N 48900 44500 47900 44500 4
N 47900 44200 48100 44200 4
C 46500 52800 1 0 0 ca3140.sym
{
T 47100 53800 5 10 1 1 0 0 1
device=CA3140
T 47200 53600 5 10 1 1 0 0 1
refdes=U3
T 47200 54200 5 10 0 0 0 0 1
symversion=0.1
T 46495 52895 5 10 0 1 0 0 1
footprint=DIP8
T 46500 52800 5 10 1 1 0 0 1
value=CA3140
}
C 49900 53000 1 0 0 tl081.sym
{
T 50500 54000 5 10 1 1 0 0 1
device=TL081
T 50600 53800 5 10 1 1 0 0 1
refdes=U4
T 50600 54400 5 10 0 0 0 0 1
symversion=0.1
T 49895 53095 5 10 0 1 0 0 1
footprint=DIP8
T 49900 53000 5 10 1 1 0 0 1
value=TL081
}
C 43600 53500 1 0 0 resistor-2.sym
{
T 44000 53850 5 10 0 0 0 0 1
device=RESISTOR
T 43800 53800 5 10 1 1 0 0 1
refdes=R14
T 44200 53800 5 10 1 1 0 0 1
value=4M7
T 43600 53500 5 10 0 1 0 0 1
footprint=ACY600
}
C 45300 52600 1 90 0 capacitor-1.sym
{
T 44600 52800 5 10 0 0 90 0 1
device=CAPACITOR
T 44800 52800 5 10 1 1 90 0 1
refdes=C3
T 44400 52800 5 10 0 0 90 0 1
symversion=0.1
T 44800 53200 5 10 1 1 90 0 1
value=2.2n
T 45300 52600 5 10 0 0 0 0 1
footprint=0805
}
C 42900 53100 1 0 0 BNC-1.sym
{
T 43250 53750 5 10 0 0 0 0 1
device=BNC
T 42900 53900 5 10 1 1 0 0 1
refdes=CONN3
}
C 45000 52100 1 0 0 gnd-1.sym
C 42900 52100 1 0 0 gnd-1.sym
C 46600 55500 1 0 0 vcc-1.sym
{
T 47000 55700 5 10 1 1 0 0 1
netname=+12V
}
C 47000 52000 1 180 0 vee-1.sym
{
T 46900 51800 5 10 1 1 0 0 1
netname=-12V
}
C 45400 53100 1 0 0 resistor-2.sym
{
T 45800 53450 5 10 0 0 0 0 1
device=RESISTOR
T 45600 53400 5 10 1 1 0 0 1
refdes=R15
T 45900 53400 5 10 1 1 0 0 1
value=100M
T 45400 53100 5 10 0 1 0 0 1
footprint=ACY600
}
C 46800 52200 1 0 0 resistor-2.sym
{
T 47200 52550 5 10 0 0 0 0 1
device=RESISTOR
T 47000 52500 5 10 1 1 0 0 1
refdes=R16
T 47400 52500 5 10 1 1 0 0 1
value=4.7k
T 46800 52200 5 10 0 1 0 0 1
footprint=ACY600
}
C 47200 51400 1 0 0 resistor-2.sym
{
T 47600 51750 5 10 0 0 0 0 1
device=RESISTOR
T 47400 51700 5 10 1 1 0 0 1
refdes=R17
T 47900 51700 5 10 1 1 0 0 1
value=2.2k
T 47200 51400 5 10 0 1 0 0 1
footprint=ACY600
}
N 43400 53600 43600 53600 4
N 45100 53600 45100 53500 4
N 45400 53600 45400 53200 4
N 44500 53600 46500 53600 4
N 46300 53200 46500 53200 4
N 43000 53100 43000 52400 4
N 45100 52600 45100 52400 4
C 44900 51500 1 270 0 resistor-variable-2.sym
{
T 45300 50950 5 10 1 1 270 0 1
refdes=R18
T 45800 50700 5 10 0 1 270 0 1
device=VARIABLE_RESISTOR
T 45300 51400 5 10 1 1 270 0 1
value=4.7k
}
C 48000 55200 1 180 0 resistor-variable-2.sym
{
T 47650 55400 5 10 1 1 180 0 1
refdes=R19
T 47200 54300 5 10 0 1 180 0 1
device=VARIABLE_RESISTOR
T 47800 55300 5 10 1 1 0 0 1
value=5k
}
N 47200 52900 47200 52800 4
N 47200 52800 48000 52800 4
N 48000 52800 48000 55100 4
N 47100 55100 47000 55100 4
N 47000 55100 47000 53900 4
N 46800 52900 46800 52000 4
N 47500 54600 47900 54600 4
N 47900 54600 47900 52300 4
N 47900 52300 47700 52300 4
C 44900 49200 1 0 0 gnd-1.sym
C 45100 49600 1 90 0 resistor-2.sym
{
T 44750 50000 5 10 0 0 90 0 1
device=RESISTOR
T 44800 49800 5 10 1 1 90 0 1
refdes=R20
T 44800 50200 5 10 1 1 90 0 1
value=1k
T 45100 49600 5 10 0 1 90 0 1
footprint=ACY600
}
N 45000 49600 45000 49500 4
N 45000 50600 45000 50500 4
C 46400 50800 1 0 0 capacitor-1.sym
{
T 46600 51500 5 10 0 0 0 0 1
device=CAPACITOR
T 46600 51300 5 10 1 1 0 0 1
refdes=C4
T 46600 51700 5 10 0 0 0 0 1
symversion=0.1
T 47000 51300 5 10 1 1 0 0 1
value=1u
T 46400 50800 5 10 0 0 0 0 1
footprint=0805
}
N 46400 51000 46400 53200 4
N 46400 51000 45500 51000 4
N 47500 53400 48400 53400 4
N 48100 53400 48100 51000 4
N 48100 51000 47300 51000 4
N 47200 51500 45000 51500 4
N 46800 55500 46800 53900 4
C 48400 53300 1 0 0 resistor-2.sym
{
T 48800 53650 5 10 0 0 0 0 1
device=RESISTOR
T 48600 53600 5 10 1 1 0 0 1
refdes=R21
T 49000 53600 5 10 1 1 0 0 1
value=47k
T 48400 53300 5 10 0 1 0 0 1
footprint=ACY600
}
N 49300 53400 49900 53400 4
C 49500 52300 1 90 0 resistor-2.sym
{
T 49150 52700 5 10 0 0 90 0 1
device=RESISTOR
T 49200 52500 5 10 1 1 90 0 1
refdes=R22
T 49200 53000 5 10 1 1 90 0 1
value=56k
T 49500 52300 5 10 0 1 90 0 1
footprint=ACY600
}
C 49300 52100 1 270 0 resistor-variable-2.sym
{
T 49700 51550 5 10 1 1 270 0 1
refdes=R23
T 50200 51300 5 10 0 1 270 0 1
device=VARIABLE_RESISTOR
T 49700 52100 5 10 1 1 270 0 1
value=100k
}
C 49600 51100 1 180 0 vee-1.sym
{
T 49500 50900 5 10 1 1 0 0 1
netname=-12V
}
N 49400 53200 49400 53400 4
N 49400 52300 49400 52100 4
N 49400 51200 49400 51100 4
N 49900 51600 49900 52200 4
N 49900 52200 49400 52200 4
N 50200 53100 50200 51200 4
N 50200 51200 49400 51200 4
N 50200 54100 50200 55500 4
N 50200 55500 46800 55500 4
C 50400 54400 1 0 0 resistor-2.sym
{
T 50800 54750 5 10 0 0 0 0 1
device=RESISTOR
T 50600 54700 5 10 1 1 0 0 1
refdes=R24
T 51100 54700 5 10 1 1 0 0 1
value=47k
T 50400 54400 5 10 0 1 0 0 1
footprint=ACY600
}
C 49600 53500 1 0 0 gnd-1.sym
N 49900 53800 49700 53800 4
N 49400 53400 49400 54500 4
N 49400 54500 50400 54500 4
N 50900 53600 51500 53600 4
N 51500 54500 51300 54500 4
C 51400 51000 1 0 0 gnd-1.sym
C 51600 52500 1 90 0 resistor-2.sym
{
T 51250 52900 5 10 0 0 90 0 1
device=RESISTOR
T 51300 52700 5 10 1 1 90 0 1
refdes=R25
T 51300 53100 5 10 1 1 90 0 1
value=4.7k
T 51600 52500 5 10 0 1 90 0 1
footprint=ACY600
}
C 51600 51400 1 90 0 resistor-2.sym
{
T 51250 51800 5 10 0 0 90 0 1
device=RESISTOR
T 51300 51600 5 10 1 1 90 0 1
refdes=R26
T 51300 52000 5 10 1 1 90 0 1
value=4.7k
T 51600 51400 5 10 0 1 90 0 1
footprint=ACY600
}
N 51500 53400 51500 54500 4
N 51500 52500 51500 52300 4
N 51500 51400 51500 51300 4
C 54300 49800 1 0 1 connector3-1.sym
{
T 52500 50700 5 10 0 0 0 6 1
device=OUTPUT
T 54300 50900 5 10 1 1 0 6 1
refdes=CONN4
T 54300 49800 5 10 0 0 0 0 1
footprint=JUMPER3
}
C 51500 50000 1 0 0 gnd-1.sym
N 51600 50300 52600 50300 4
N 51500 52400 52300 52400 4
N 52300 52400 52300 50600 4
N 52300 50600 52600 50600 4
{
T 52400 50700 5 10 1 1 0 0 1
netname=ph_out
}
N 51400 47100 52200 47100 4
N 52200 47100 52200 50000 4
N 52200 50000 52600 50000 4
{
T 52200 50100 5 10 1 1 0 0 1
netname=redox_out
}
