v 20050820 1
T -1891 -3140 9 10 1 0 0 0 1
AT89C51QC-20
T -1891 2999 5 10 0 0 0 0 1
device=AT89C51QC-20
T -1891 3099 5 10 0 0 0 0 1
footprint=PQFP44
T -1941 2999 8 10 1 1 0 0 1
refdes=U?
L -1200 -2600 1200 -2600 3 0 0 0 -1 -1
L 1200 -2600 1200 2600 3 0 0 0 -1 -1
L 1200 2600 -1200 2600 3 0 0 0 -1 -1
L -1200 2600 -1200 -2600 3 0 0 0 -1 -1
P 1500 -1600 1200 -1600 1 0 0
{
T 1550 -1650 5 8 0 1 0 0 1
pintype=in
T 1240 -1570 5 8 1 1 0 0 1
pinnumber=29
T 1240 -1570 5 8 1 1 0 0 1
pinseq=29
T 1160 -1600 3 8 1 1 0 6 1
pinlabel=!EA!/VPP
}
P 1500 -2000 1200 -2000 1 0 0
{
T 1550 -2050 5 8 0 1 0 0 1
pintype=out
T 1240 -1970 5 8 1 1 0 0 1
pinnumber=26
T 1240 -1970 5 8 1 1 0 0 1
pinseq=26
T 1160 -2000 3 8 1 1 0 6 1
pinlabel=!PSEN
}
P 1500 -1800 1200 -1800 1 0 0
{
T 1550 -1850 5 8 0 1 0 0 1
pintype=out
T 1240 -1770 5 8 1 1 0 0 1
pinnumber=27
T 1240 -1770 5 8 1 1 0 0 1
pinseq=27
T 1160 -1800 3 8 1 1 0 6 1
pinlabel=ALE/!PROG
}
P 1500 -2400 1200 -2400 1 0 0
{
T 1550 -2450 5 8 0 1 0 0 1
pintype=pwr
T 1240 -2370 5 8 1 1 0 0 1
pinnumber=16
T 1240 -2370 5 8 1 1 0 0 1
pinseq=16
T 1160 -2400 3 8 1 1 0 6 1
pinlabel=GND
}
P 1500 2000 1200 2000 1 0 0
{
T 1550 1950 5 8 0 1 0 0 1
pintype=io
T 1240 2030 5 8 1 1 0 0 1
pinnumber=37
T 1240 2030 5 8 1 1 0 0 1
pinseq=37
T 1160 2000 3 8 1 1 0 6 1
pinlabel=P0.0_AD0
}
P 1500 1800 1200 1800 1 0 0
{
T 1550 1750 5 8 0 1 0 0 1
pintype=io
T 1240 1830 5 8 1 1 0 0 1
pinnumber=36
T 1240 1830 5 8 1 1 0 0 1
pinseq=36
T 1160 1800 3 8 1 1 0 6 1
pinlabel=P0.1_AD1
}
P 1500 1600 1200 1600 1 0 0
{
T 1550 1550 5 8 0 1 0 0 1
pintype=io
T 1240 1630 5 8 1 1 0 0 1
pinnumber=35
T 1240 1630 5 8 1 1 0 0 1
pinseq=35
T 1160 1600 3 8 1 1 0 6 1
pinlabel=P0.2_AD2
}
P 1500 1400 1200 1400 1 0 0
{
T 1550 1350 5 8 0 1 0 0 1
pintype=io
T 1240 1430 5 8 1 1 0 0 1
pinnumber=34
T 1240 1430 5 8 1 1 0 0 1
pinseq=34
T 1160 1400 3 8 1 1 0 6 1
pinlabel=P0.3_AD3
}
P 1500 1200 1200 1200 1 0 0
{
T 1550 1150 5 8 0 1 0 0 1
pintype=io
T 1240 1230 5 8 1 1 0 0 1
pinnumber=33
T 1240 1230 5 8 1 1 0 0 1
pinseq=33
T 1160 1200 3 8 1 1 0 6 1
pinlabel=P0.4_AD4
}
P 1500 1000 1200 1000 1 0 0
{
T 1550 950 5 8 0 1 0 0 1
pintype=io
T 1240 1030 5 8 1 1 0 0 1
pinnumber=32
T 1240 1030 5 8 1 1 0 0 1
pinseq=32
T 1160 1000 3 8 1 1 0 6 1
pinlabel=P0.5_AD5
}
P 1500 800 1200 800 1 0 0
{
T 1550 750 5 8 0 1 0 0 1
pintype=io
T 1240 830 5 8 1 1 0 0 1
pinnumber=31
T 1240 830 5 8 1 1 0 0 1
pinseq=31
T 1160 800 3 8 1 1 0 6 1
pinlabel=P0.6_AD6
}
P 1500 600 1200 600 1 0 0
{
T 1550 550 5 8 0 1 0 0 1
pintype=io
T 1240 630 5 8 1 1 0 0 1
pinnumber=30
T 1240 630 5 8 1 1 0 0 1
pinseq=30
T 1160 600 3 8 1 1 0 6 1
pinlabel=P0.7_AD7
}
P -1500 1000 -1200 1000 1 0 0
{
T -1550 950 5 8 0 1 0 6 1
pintype=io
T -1240 1030 5 8 1 1 0 6 1
pinnumber=40
T -1240 1030 5 8 1 1 0 6 1
pinseq=40
T -1160 1000 3 8 1 1 0 0 1
pinlabel=P1.0
}
P -1500 800 -1200 800 1 0 0
{
T -1550 750 5 8 0 1 0 6 1
pintype=io
T -1240 830 5 8 1 1 0 6 1
pinnumber=41
T -1240 830 5 8 1 1 0 6 1
pinseq=41
T -1160 800 3 8 1 1 0 0 1
pinlabel=P1.1
}
P -1500 600 -1200 600 1 0 0
{
T -1550 550 5 8 0 1 0 6 1
pintype=io
T -1240 630 5 8 1 1 0 6 1
pinnumber=42
T -1240 630 5 8 1 1 0 6 1
pinseq=42
T -1160 600 3 8 1 1 0 0 1
pinlabel=P1.2
}
P -1500 400 -1200 400 1 0 0
{
T -1550 350 5 8 0 1 0 6 1
pintype=io
T -1240 430 5 8 1 1 0 6 1
pinnumber=43
T -1240 430 5 8 1 1 0 6 1
pinseq=43
T -1160 400 3 8 1 1 0 0 1
pinlabel=P1.3
}
P -1500 200 -1200 200 1 0 0
{
T -1550 150 5 8 0 1 0 6 1
pintype=io
T -1240 230 5 8 1 1 0 6 1
pinnumber=44
T -1240 230 5 8 1 1 0 6 1
pinseq=44
T -1160 200 3 8 1 1 0 0 1
pinlabel=P1.4
}
P -1500 0 -1200 0 1 0 0
{
T -1550 -50 5 8 0 1 0 6 1
pintype=io
T -1240 30 5 8 1 1 0 6 1
pinnumber=1
T -1240 30 5 8 1 1 0 6 1
pinseq=1
T -1160 0 3 8 1 1 0 0 1
pinlabel=P1.5
}
P -1500 -200 -1200 -200 1 0 0
{
T -1550 -250 5 8 0 1 0 6 1
pintype=io
T -1240 -170 5 8 1 1 0 6 1
pinnumber=2
T -1240 -170 5 8 1 1 0 6 1
pinseq=2
T -1160 -200 3 8 1 1 0 0 1
pinlabel=P1.6
}
P -1500 -400 -1200 -400 1 0 0
{
T -1550 -450 5 8 0 1 0 6 1
pintype=io
T -1240 -370 5 8 1 1 0 6 1
pinnumber=3
T -1240 -370 5 8 1 1 0 6 1
pinseq=3
T -1160 -400 3 8 1 1 0 0 1
pinlabel=P1.7
}
P 1500 200 1200 200 1 0 0
{
T 1550 150 5 8 0 1 0 0 1
pintype=io
T 1240 230 5 8 1 1 0 0 1
pinnumber=18
T 1240 230 5 8 1 1 0 0 1
pinseq=18
T 1160 200 3 8 1 1 0 6 1
pinlabel=P2.0_A8
}
P 1500 0 1200 0 1 0 0
{
T 1550 -50 5 8 0 1 0 0 1
pintype=io
T 1240 30 5 8 1 1 0 0 1
pinnumber=19
T 1240 30 5 8 1 1 0 0 1
pinseq=19
T 1160 0 3 8 1 1 0 6 1
pinlabel=P2.1_A9
}
P 1500 -200 1200 -200 1 0 0
{
T 1550 -250 5 8 0 1 0 0 1
pintype=io
T 1240 -170 5 8 1 1 0 0 1
pinnumber=20
T 1240 -170 5 8 1 1 0 0 1
pinseq=20
T 1160 -200 3 8 1 1 0 6 1
pinlabel=P2.2_A10
}
P 1500 -400 1200 -400 1 0 0
{
T 1550 -450 5 8 0 1 0 0 1
pintype=io
T 1240 -370 5 8 1 1 0 0 1
pinnumber=21
T 1240 -370 5 8 1 1 0 0 1
pinseq=21
T 1160 -400 3 8 1 1 0 6 1
pinlabel=P2.3_A11
}
P 1500 -600 1200 -600 1 0 0
{
T 1550 -650 5 8 0 1 0 0 1
pintype=io
T 1240 -570 5 8 1 1 0 0 1
pinnumber=22
T 1240 -570 5 8 1 1 0 0 1
pinseq=22
T 1160 -600 3 8 1 1 0 6 1
pinlabel=P2.4_A12
}
P 1500 -800 1200 -800 1 0 0
{
T 1550 -850 5 8 0 1 0 0 1
pintype=io
T 1240 -770 5 8 1 1 0 0 1
pinnumber=23
T 1240 -770 5 8 1 1 0 0 1
pinseq=23
T 1160 -800 3 8 1 1 0 6 1
pinlabel=P2.5_A13
}
P 1500 -1000 1200 -1000 1 0 0
{
T 1550 -1050 5 8 0 1 0 0 1
pintype=io
T 1240 -970 5 8 1 1 0 0 1
pinnumber=24
T 1240 -970 5 8 1 1 0 0 1
pinseq=24
T 1160 -1000 3 8 1 1 0 6 1
pinlabel=P2.6_A14
}
P 1500 -1200 1200 -1200 1 0 0
{
T 1550 -1250 5 8 0 1 0 0 1
pintype=io
T 1240 -1170 5 8 1 1 0 0 1
pinnumber=25
T 1240 -1170 5 8 1 1 0 0 1
pinseq=25
T 1160 -1200 3 8 1 1 0 6 1
pinlabel=P2.7_A15
}
P -1500 -800 -1200 -800 1 0 0
{
T -1550 -850 5 8 0 1 0 6 1
pintype=io
T -1240 -770 5 8 1 1 0 6 1
pinnumber=5
T -1240 -770 5 8 1 1 0 6 1
pinseq=5
T -1160 -800 3 8 1 1 0 0 1
pinlabel=P3.0/RXD
}
P -1500 -1000 -1200 -1000 1 0 0
{
T -1550 -1050 5 8 0 1 0 6 1
pintype=io
T -1240 -970 5 8 1 1 0 6 1
pinnumber=7
T -1240 -970 5 8 1 1 0 6 1
pinseq=7
T -1160 -1000 3 8 1 1 0 0 1
pinlabel=P3.1/TXD
}
P -1500 -1200 -1200 -1200 1 0 0
{
T -1550 -1250 5 8 0 1 0 6 1
pintype=io
T -1240 -1170 5 8 1 1 0 6 1
pinnumber=8
T -1240 -1170 5 8 1 1 0 6 1
pinseq=8
T -1160 -1200 3 8 1 1 0 0 1
pinlabel=P3.2/!INT0
}
P -1500 -1400 -1200 -1400 1 0 0
{
T -1550 -1450 5 8 0 1 0 6 1
pintype=io
T -1240 -1370 5 8 1 1 0 6 1
pinnumber=9
T -1240 -1370 5 8 1 1 0 6 1
pinseq=9
T -1160 -1400 3 8 1 1 0 0 1
pinlabel=P3.3/!INT1
}
P -1500 -1600 -1200 -1600 1 0 0
{
T -1550 -1650 5 8 0 1 0 6 1
pintype=io
T -1240 -1570 5 8 1 1 0 6 1
pinnumber=10
T -1240 -1570 5 8 1 1 0 6 1
pinseq=10
T -1160 -1600 3 8 1 1 0 0 1
pinlabel=P3.4/T0
}
P -1500 -1800 -1200 -1800 1 0 0
{
T -1550 -1850 5 8 0 1 0 6 1
pintype=io
T -1240 -1770 5 8 1 1 0 6 1
pinnumber=11
T -1240 -1770 5 8 1 1 0 6 1
pinseq=11
T -1160 -1800 3 8 1 1 0 0 1
pinlabel=P3.5/T1
}
P -1500 -2000 -1200 -2000 1 0 0
{
T -1550 -2050 5 8 0 1 0 6 1
pintype=io
T -1240 -1970 5 8 1 1 0 6 1
pinnumber=12
T -1240 -1970 5 8 1 1 0 6 1
pinseq=12
T -1160 -2000 3 8 1 1 0 0 1
pinlabel=P3.6/!WR
}
P -1500 -2200 -1200 -2200 1 0 0
{
T -1550 -2250 5 8 0 1 0 6 1
pintype=io
T -1240 -2170 5 8 1 1 0 6 1
pinnumber=13
T -1240 -2170 5 8 1 1 0 6 1
pinseq=13
T -1160 -2200 3 8 1 1 0 0 1
pinlabel=P3.7/!RD
}
P -1500 2400 -1200 2400 1 0 0
{
T -1550 2350 5 8 0 1 0 6 1
pintype=in
T -1240 2430 5 8 1 1 0 6 1
pinnumber=4
T -1240 2430 5 8 1 1 0 6 1
pinseq=4
T -1160 2400 3 8 1 1 0 0 1
pinlabel=RST
}
P 1500 2400 1200 2400 1 0 0
{
T 1550 2350 5 8 0 1 0 0 1
pintype=pwr
T 1240 2430 5 8 1 1 0 0 1
pinnumber=38
T 1240 2430 5 8 1 1 0 0 1
pinseq=38
T 1160 2400 3 8 1 1 0 6 1
pinlabel=VCC
}
P -1500 2000 -1200 2000 1 0 0
{
T -1550 1950 5 8 0 1 0 6 1
pintype=in
T -1240 2030 5 8 1 1 0 6 1
pinnumber=15
T -1240 2030 5 8 1 1 0 6 1
pinseq=15
T -1160 2000 3 8 1 1 0 0 1
pinlabel=XTAL1
}
P -1500 1400 -1200 1400 1 0 0
{
T -1550 1350 5 8 0 1 0 6 1
pintype=in
T -1240 1430 5 8 1 1 0 6 1
pinnumber=14
T -1240 1430 5 8 1 1 0 6 1
pinseq=14
T -1160 1400 3 8 1 1 0 0 1
pinlabel=XTAL2
}
P 200 -2900 200 -2600 1 0 0
{
T 250 -2950 5 8 0 1 0 0 1
pintype=pwr
T 150 -2640 5 8 1 1 0 8 1
pinnumber=17
T 150 -2640 5 8 1 1 0 8 1
pinseq=17
T 120 -2560 3 8 1 1 0 0 1
pinlabel=GND
}
