v 20050820 1
T -1090 -848 9 10 1 0 0 0 1
AT93C46A-10TQ-2.7
T -1090 1199 5 10 0 0 0 0 1
device=AT93C46A-10TQ-2.7
T -1090 1299 5 10 0 0 0 0 1
footprint=TSSOP8
T -1140 1199 8 10 1 1 0 0 1
refdes=U?
L -600 800 600 800 3 0 0 0 -1 -1
L 600 800 600 -600 3 0 0 0 -1 -1
L 600 -600 -600 -600 3 0 0 0 -1 -1
L -600 -600 -600 800 3 0 0 0 -1 -1
P 900 -200 600 -200 1 0 0
{
T 950 -250 5 8 0 1 0 0 1
pintype=in
T 640 -170 5 8 1 1 0 0 1
pinnumber=1
T 640 -170 5 8 1 1 0 0 1
pinseq=1
T 560 -200 3 8 1 1 0 6 1
pinlabel=CS
}
P -900 0 -600 0 1 0 0
{
T -950 -50 5 8 0 1 0 6 1
pintype=in
T -640 30 5 8 1 1 0 6 1
pinnumber=7
T -640 30 5 8 1 1 0 6 1
pinseq=7
T -560 0 3 8 1 1 0 0 1
pinlabel=DC
}
P 900 400 600 400 1 0 0
{
T 950 350 5 8 0 1 0 0 1
pintype=in
T 640 430 5 8 1 1 0 0 1
pinnumber=3
T 640 430 5 8 1 1 0 0 1
pinseq=3
T 560 400 3 8 1 1 0 6 1
pinlabel=DI
}
P 900 600 600 600 1 0 0
{
T 950 550 5 8 0 1 0 0 1
pintype=out
T 640 630 5 8 1 1 0 0 1
pinnumber=4
T 640 630 5 8 1 1 0 0 1
pinseq=4
T 560 600 3 8 1 1 0 6 1
pinlabel=DO
}
P -900 -400 -600 -400 1 0 0
{
T -950 -450 5 8 0 1 0 6 1
pintype=pwr
T -640 -370 5 8 1 1 0 6 1
pinnumber=5
T -640 -370 5 8 1 1 0 6 1
pinseq=5
T -560 -400 3 8 1 1 0 0 1
pinlabel=GND
}
P -300 200 -600 200 1 0 0
{
T -250 150 5 8 0 1 0 0 1
pintype=in
T -560 230 5 8 1 1 0 0 1
pinnumber=6
T -560 230 5 8 1 1 0 0 1
pinseq=6
T -640 200 3 8 1 1 0 6 1
pinlabel=NC
}
P 900 200 600 200 1 0 0
{
T 950 150 5 8 0 1 0 0 1
pintype=in
T 640 230 5 8 1 1 0 0 1
pinnumber=2
T 640 230 5 8 1 1 0 0 1
pinseq=2
T 560 200 3 8 1 1 0 6 1
pinlabel=SK
}
P -900 600 -600 600 1 0 0
{
T -950 550 5 8 0 1 0 6 1
pintype=pwr
T -640 630 5 8 1 1 0 6 1
pinnumber=8
T -640 630 5 8 1 1 0 6 1
pinseq=8
T -560 600 3 8 1 1 0 0 1
pinlabel=VCC
}
