v 20050820 1
T -2090 -3047 9 10 1 0 0 0 1
MEGA8-MI
T -2090 2951 5 10 0 0 0 0 1
device=MEGA8-MI
T -2090 3051 5 10 0 0 0 0 1
footprint=MLF32-TH
T -2140 2951 8 10 1 1 0 0 1
refdes=U?
L -1400 2400 1600 2400 3 0 0 0 -1 -1
L 1600 2400 1600 -2600 3 0 0 0 -1 -1
L 1600 -2600 -1400 -2600 3 0 0 0 -1 -1
L -1400 -2600 -1400 2400 3 0 0 0 -1 -1
P 1900 1000 1600 1000 1 0 0
{
T 1950 950 5 8 0 1 0 0 1
pintype=io
T 1640 1030 5 8 1 1 0 0 1
pinnumber=19
T 1640 1030 5 8 1 1 0 0 1
pinseq=19
T 1560 1000 3 8 1 1 0 6 1
pinlabel=ADC6
}
P 1900 800 1600 800 1 0 0
{
T 1950 750 5 8 0 1 0 0 1
pintype=io
T 1640 830 5 8 1 1 0 0 1
pinnumber=22
T 1640 830 5 8 1 1 0 0 1
pinseq=22
T 1560 800 3 8 1 1 0 6 1
pinlabel=ADC7
}
P -1700 1800 -1400 1800 1 0 0
{
T -1750 1750 5 8 0 1 0 6 1
pintype=pwr
T -1440 1830 5 8 1 1 0 6 1
pinnumber=21
T -1440 1830 5 8 1 1 0 6 1
pinseq=21
T -1360 1800 3 8 1 1 0 0 1
pinlabel=AGND
}
P -1700 1600 -1400 1600 1 0 0
{
T -1750 1550 5 8 0 1 0 6 1
pintype=pas
T -1440 1630 5 8 1 1 0 6 1
pinnumber=20
T -1440 1630 5 8 1 1 0 6 1
pinseq=20
T -1360 1600 3 8 1 1 0 0 1
pinlabel=AREF
}
P -1700 1400 -1400 1400 1 0 0
{
T -1750 1350 5 8 0 1 0 6 1
pintype=pwr
T -1440 1430 5 8 1 1 0 6 1
pinnumber=18
T -1440 1430 5 8 1 1 0 6 1
pinseq=18
T -1360 1400 3 8 1 1 0 0 1
pinlabel=AVCC
}
P -1700 -200 -1400 -200 1 0 0
{
T -1750 -250 5 8 0 1 0 6 1
pintype=pwr
T -1440 -170 5 8 1 1 0 6 1
pinnumber=3
T -1440 -170 5 8 1 1 0 6 1
pinseq=3
T -1360 -200 3 8 1 1 0 0 1
pinlabel=GND@1
}
P -1700 -400 -1400 -400 1 0 0
{
T -1750 -450 5 8 0 1 0 6 1
pintype=pwr
T -1440 -370 5 8 1 1 0 6 1
pinnumber=5
T -1440 -370 5 8 1 1 0 6 1
pinseq=5
T -1360 -400 3 8 1 1 0 0 1
pinlabel=GND@2
}
P 1900 -1400 1600 -1400 1 0 0
{
T 1950 -1450 5 8 0 1 0 0 1
pintype=io
T 1640 -1370 5 8 1 1 0 0 1
pinnumber=12
T 1640 -1370 5 8 1 1 0 0 1
pinseq=12
T 1560 -1400 3 8 1 1 0 6 1
pinlabel=PB0(ICP)
}
P 1900 -1600 1600 -1600 1 0 0
{
T 1950 -1650 5 8 0 1 0 0 1
pintype=io
T 1640 -1570 5 8 1 1 0 0 1
pinnumber=13
T 1640 -1570 5 8 1 1 0 0 1
pinseq=13
T 1560 -1600 3 8 1 1 0 6 1
pinlabel=PB1(OC1A)
}
P 1900 -1800 1600 -1800 1 0 0
{
T 1950 -1850 5 8 0 1 0 0 1
pintype=io
T 1640 -1770 5 8 1 1 0 0 1
pinnumber=14
T 1640 -1770 5 8 1 1 0 0 1
pinseq=14
T 1560 -1800 3 8 1 1 0 6 1
pinlabel=PB2(SS/OC1B)
}
P 1900 -2000 1600 -2000 1 0 0
{
T 1950 -2050 5 8 0 1 0 0 1
pintype=io
T 1640 -1970 5 8 1 1 0 0 1
pinnumber=15
T 1640 -1970 5 8 1 1 0 0 1
pinseq=15
T 1560 -2000 3 8 1 1 0 6 1
pinlabel=PB3(MOSI/OC2)
}
P 1900 -2200 1600 -2200 1 0 0
{
T 1950 -2250 5 8 0 1 0 0 1
pintype=io
T 1640 -2170 5 8 1 1 0 0 1
pinnumber=16
T 1640 -2170 5 8 1 1 0 0 1
pinseq=16
T 1560 -2200 3 8 1 1 0 6 1
pinlabel=PB4(MISO)
}
P 1900 -2400 1600 -2400 1 0 0
{
T 1950 -2450 5 8 0 1 0 0 1
pintype=io
T 1640 -2370 5 8 1 1 0 0 1
pinnumber=17
T 1640 -2370 5 8 1 1 0 0 1
pinseq=17
T 1560 -2400 3 8 1 1 0 6 1
pinlabel=PB5(SCK)
}
P -1700 800 -1400 800 1 0 0
{
T -1750 750 5 8 0 1 0 6 1
pintype=io
T -1440 830 5 8 1 1 0 6 1
pinnumber=7
T -1440 830 5 8 1 1 0 6 1
pinseq=7
T -1360 800 3 8 1 1 0 0 1
pinlabel=PB6(XTAL1/TOSC1)
}
P -1700 400 -1400 400 1 0 0
{
T -1750 350 5 8 0 1 0 6 1
pintype=io
T -1440 430 5 8 1 1 0 6 1
pinnumber=8
T -1440 430 5 8 1 1 0 6 1
pinseq=8
T -1360 400 3 8 1 1 0 0 1
pinlabel=PB7(XTAL2/TOSC2)
}
P 1900 2200 1600 2200 1 0 0
{
T 1950 2150 5 8 0 1 0 0 1
pintype=io
T 1640 2230 5 8 1 1 0 0 1
pinnumber=23
T 1640 2230 5 8 1 1 0 0 1
pinseq=23
T 1560 2200 3 8 1 1 0 6 1
pinlabel=PC0(ADC0)
}
P 1900 2000 1600 2000 1 0 0
{
T 1950 1950 5 8 0 1 0 0 1
pintype=io
T 1640 2030 5 8 1 1 0 0 1
pinnumber=24
T 1640 2030 5 8 1 1 0 0 1
pinseq=24
T 1560 2000 3 8 1 1 0 6 1
pinlabel=PC1(ADC1)
}
P 1900 1800 1600 1800 1 0 0
{
T 1950 1750 5 8 0 1 0 0 1
pintype=io
T 1640 1830 5 8 1 1 0 0 1
pinnumber=25
T 1640 1830 5 8 1 1 0 0 1
pinseq=25
T 1560 1800 3 8 1 1 0 6 1
pinlabel=PC2(ADC2)
}
P 1900 1600 1600 1600 1 0 0
{
T 1950 1550 5 8 0 1 0 0 1
pintype=io
T 1640 1630 5 8 1 1 0 0 1
pinnumber=26
T 1640 1630 5 8 1 1 0 0 1
pinseq=26
T 1560 1600 3 8 1 1 0 6 1
pinlabel=PC3(ADC3)
}
P 1900 1400 1600 1400 1 0 0
{
T 1950 1350 5 8 0 1 0 0 1
pintype=io
T 1640 1430 5 8 1 1 0 0 1
pinnumber=27
T 1640 1430 5 8 1 1 0 0 1
pinseq=27
T 1560 1400 3 8 1 1 0 6 1
pinlabel=PC4(ADC4/SDA)
}
P 1900 1200 1600 1200 1 0 0
{
T 1950 1150 5 8 0 1 0 0 1
pintype=io
T 1640 1230 5 8 1 1 0 0 1
pinnumber=28
T 1640 1230 5 8 1 1 0 0 1
pinseq=28
T 1560 1200 3 8 1 1 0 6 1
pinlabel=PC5(ADC5/SCL)
}
V -1450 2200 50 6 0 0 0 -1 -1 0 -1 -1 -1 -1 -1
P -1700 2200 -1500 2200 1 0 0
{
T -1750 2150 5 8 0 1 0 6 1
pintype=io
T -1440 2230 5 8 1 1 0 6 1
pinnumber=29
T -1440 2230 5 8 1 1 0 6 1
pinseq=29
T -1360 2200 3 8 1 1 0 0 1
pinlabel=PC6(/RESET)
}
P 1900 400 1600 400 1 0 0
{
T 1950 350 5 8 0 1 0 0 1
pintype=io
T 1640 430 5 8 1 1 0 0 1
pinnumber=30
T 1640 430 5 8 1 1 0 0 1
pinseq=30
T 1560 400 3 8 1 1 0 6 1
pinlabel=PD0(RXD)
}
P 1900 200 1600 200 1 0 0
{
T 1950 150 5 8 0 1 0 0 1
pintype=io
T 1640 230 5 8 1 1 0 0 1
pinnumber=31
T 1640 230 5 8 1 1 0 0 1
pinseq=31
T 1560 200 3 8 1 1 0 6 1
pinlabel=PD1(TXD)
}
P 1900 0 1600 0 1 0 0
{
T 1950 -50 5 8 0 1 0 0 1
pintype=io
T 1640 30 5 8 1 1 0 0 1
pinnumber=32
T 1640 30 5 8 1 1 0 0 1
pinseq=32
T 1560 0 3 8 1 1 0 6 1
pinlabel=PD2(INT0)
}
P 1900 -200 1600 -200 1 0 0
{
T 1950 -250 5 8 0 1 0 0 1
pintype=io
T 1640 -170 5 8 1 1 0 0 1
pinnumber=1
T 1640 -170 5 8 1 1 0 0 1
pinseq=1
T 1560 -200 3 8 1 1 0 6 1
pinlabel=PD3(INT1)
}
P 1900 -400 1600 -400 1 0 0
{
T 1950 -450 5 8 0 1 0 0 1
pintype=io
T 1640 -370 5 8 1 1 0 0 1
pinnumber=2
T 1640 -370 5 8 1 1 0 0 1
pinseq=2
T 1560 -400 3 8 1 1 0 6 1
pinlabel=PD4(XCK/T0)
}
P 1900 -600 1600 -600 1 0 0
{
T 1950 -650 5 8 0 1 0 0 1
pintype=io
T 1640 -570 5 8 1 1 0 0 1
pinnumber=9
T 1640 -570 5 8 1 1 0 0 1
pinseq=9
T 1560 -600 3 8 1 1 0 6 1
pinlabel=PD5(T1)
}
P 1900 -800 1600 -800 1 0 0
{
T 1950 -850 5 8 0 1 0 0 1
pintype=io
T 1640 -770 5 8 1 1 0 0 1
pinnumber=10
T 1640 -770 5 8 1 1 0 0 1
pinseq=10
T 1560 -800 3 8 1 1 0 6 1
pinlabel=PD6(AIN0)
}
P 1900 -1000 1600 -1000 1 0 0
{
T 1950 -1050 5 8 0 1 0 0 1
pintype=io
T 1640 -970 5 8 1 1 0 0 1
pinnumber=11
T 1640 -970 5 8 1 1 0 0 1
pinseq=11
T 1560 -1000 3 8 1 1 0 6 1
pinlabel=PD7(AIN1)
}
P -1700 -1400 -1400 -1400 1 0 0
{
T -1750 -1450 5 8 0 1 0 6 1
pintype=pas
T -1440 -1370 5 8 1 1 0 6 1
pinnumber=TH
T -1440 -1370 5 8 1 1 0 6 1
pinseq=TH
T -1360 -1400 3 8 1 1 0 0 1
pinlabel=THERMAL
}
P -1700 -600 -1400 -600 1 0 0
{
T -1750 -650 5 8 0 1 0 6 1
pintype=pwr
T -1440 -570 5 8 1 1 0 6 1
pinnumber=4
T -1440 -570 5 8 1 1 0 6 1
pinseq=4
T -1360 -600 3 8 1 1 0 0 1
pinlabel=VCC@1
}
P -1700 -800 -1400 -800 1 0 0
{
T -1750 -850 5 8 0 1 0 6 1
pintype=pwr
T -1440 -770 5 8 1 1 0 6 1
pinnumber=6
T -1440 -770 5 8 1 1 0 6 1
pinseq=6
T -1360 -800 3 8 1 1 0 0 1
pinlabel=VCC@2
}
