v 20050820 1
T -2092 -3848 9 10 1 0 0 0 1
MEGA16-A
T -2092 4009 5 10 0 0 0 0 1
device=MEGA16-A
T -2092 4109 5 10 0 0 0 0 1
footprint=TQFP44
T -2142 4009 8 10 1 1 0 0 1
refdes=U?
L -1400 3600 1000 3600 3 0 0 0 -1 -1
L 1000 3600 1000 -3600 3 0 0 0 -1 -1
L 1000 -3600 -1400 -3600 3 0 0 0 -1 -1
L -1400 -3600 -1400 3600 3 0 0 0 -1 -1
P 1300 2000 1000 2000 1 0 0
{
T 1350 1950 5 8 0 1 0 0 1
pintype=io
T 1040 2030 5 8 1 1 0 0 1
pinnumber=37
T 1040 2030 5 8 1 1 0 0 1
pinseq=37
T 960 2000 3 8 1 1 0 6 1
pinlabel=(ADC0)PA0
}
P 1300 2200 1000 2200 1 0 0
{
T 1350 2150 5 8 0 1 0 0 1
pintype=io
T 1040 2230 5 8 1 1 0 0 1
pinnumber=36
T 1040 2230 5 8 1 1 0 0 1
pinseq=36
T 960 2200 3 8 1 1 0 6 1
pinlabel=(ADC1)PA1
}
P 1300 2400 1000 2400 1 0 0
{
T 1350 2350 5 8 0 1 0 0 1
pintype=io
T 1040 2430 5 8 1 1 0 0 1
pinnumber=35
T 1040 2430 5 8 1 1 0 0 1
pinseq=35
T 960 2400 3 8 1 1 0 6 1
pinlabel=(ADC2)PA2
}
P 1300 2600 1000 2600 1 0 0
{
T 1350 2550 5 8 0 1 0 0 1
pintype=io
T 1040 2630 5 8 1 1 0 0 1
pinnumber=34
T 1040 2630 5 8 1 1 0 0 1
pinseq=34
T 960 2600 3 8 1 1 0 6 1
pinlabel=(ADC3)PA3
}
P 1300 2800 1000 2800 1 0 0
{
T 1350 2750 5 8 0 1 0 0 1
pintype=io
T 1040 2830 5 8 1 1 0 0 1
pinnumber=33
T 1040 2830 5 8 1 1 0 0 1
pinseq=33
T 960 2800 3 8 1 1 0 6 1
pinlabel=(ADC4)PA4
}
P 1300 3000 1000 3000 1 0 0
{
T 1350 2950 5 8 0 1 0 0 1
pintype=io
T 1040 3030 5 8 1 1 0 0 1
pinnumber=32
T 1040 3030 5 8 1 1 0 0 1
pinseq=32
T 960 3000 3 8 1 1 0 6 1
pinlabel=(ADC5)PA5
}
P 1300 3200 1000 3200 1 0 0
{
T 1350 3150 5 8 0 1 0 0 1
pintype=io
T 1040 3230 5 8 1 1 0 0 1
pinnumber=31
T 1040 3230 5 8 1 1 0 0 1
pinseq=31
T 960 3200 3 8 1 1 0 6 1
pinlabel=(ADC6)PA6
}
P 1300 3400 1000 3400 1 0 0
{
T 1350 3350 5 8 0 1 0 0 1
pintype=io
T 1040 3430 5 8 1 1 0 0 1
pinnumber=30
T 1040 3430 5 8 1 1 0 0 1
pinseq=30
T 960 3400 3 8 1 1 0 6 1
pinlabel=(ADC7)PA7
}
P 1300 600 1000 600 1 0 0
{
T 1350 550 5 8 0 1 0 0 1
pintype=io
T 1040 630 5 8 1 1 0 0 1
pinnumber=42
T 1040 630 5 8 1 1 0 0 1
pinseq=42
T 960 600 3 8 1 1 0 6 1
pinlabel=(AIN0/INT2)PB2
}
P 1300 800 1000 800 1 0 0
{
T 1350 750 5 8 0 1 0 0 1
pintype=io
T 1040 830 5 8 1 1 0 0 1
pinnumber=43
T 1040 830 5 8 1 1 0 0 1
pinseq=43
T 960 800 3 8 1 1 0 6 1
pinlabel=(AIN1/OC0)PB3
}
P 1300 -2200 1000 -2200 1 0 0
{
T 1350 -2250 5 8 0 1 0 0 1
pintype=io
T 1040 -2170 5 8 1 1 0 0 1
pinnumber=15
T 1040 -2170 5 8 1 1 0 0 1
pinseq=15
T 960 -2200 3 8 1 1 0 6 1
pinlabel=(ICP)PD6
}
P 1300 -3000 1000 -3000 1 0 0
{
T 1350 -3050 5 8 0 1 0 0 1
pintype=io
T 1040 -2970 5 8 1 1 0 0 1
pinnumber=11
T 1040 -2970 5 8 1 1 0 0 1
pinseq=11
T 960 -3000 3 8 1 1 0 6 1
pinlabel=(INT0)PD2
}
P 1300 -2800 1000 -2800 1 0 0
{
T 1350 -2850 5 8 0 1 0 0 1
pintype=io
T 1040 -2770 5 8 1 1 0 0 1
pinnumber=12
T 1040 -2770 5 8 1 1 0 0 1
pinseq=12
T 960 -2800 3 8 1 1 0 6 1
pinlabel=(INT1)PD3
}
P 1300 1400 1000 1400 1 0 0
{
T 1350 1350 5 8 0 1 0 0 1
pintype=io
T 1040 1430 5 8 1 1 0 0 1
pinnumber=2
T 1040 1430 5 8 1 1 0 0 1
pinseq=2
T 960 1400 3 8 1 1 0 6 1
pinlabel=(MISO)PB6
}
P 1300 1200 1000 1200 1 0 0
{
T 1350 1150 5 8 0 1 0 0 1
pintype=io
T 1040 1230 5 8 1 1 0 0 1
pinnumber=1
T 1040 1230 5 8 1 1 0 0 1
pinseq=1
T 960 1200 3 8 1 1 0 6 1
pinlabel=(MOSI)PB5
}
P 1300 -2400 1000 -2400 1 0 0
{
T 1350 -2450 5 8 0 1 0 0 1
pintype=io
T 1040 -2370 5 8 1 1 0 0 1
pinnumber=14
T 1040 -2370 5 8 1 1 0 0 1
pinseq=14
T 960 -2400 3 8 1 1 0 6 1
pinlabel=(OC1A)PD5
}
P 1300 -2600 1000 -2600 1 0 0
{
T 1350 -2650 5 8 0 1 0 0 1
pintype=io
T 1040 -2570 5 8 1 1 0 0 1
pinnumber=13
T 1040 -2570 5 8 1 1 0 0 1
pinseq=13
T 960 -2600 3 8 1 1 0 6 1
pinlabel=(OC1B)PD4
}
P 1300 -2000 1000 -2000 1 0 0
{
T 1350 -2050 5 8 0 1 0 0 1
pintype=io
T 1040 -1970 5 8 1 1 0 0 1
pinnumber=16
T 1040 -1970 5 8 1 1 0 0 1
pinseq=16
T 960 -2000 3 8 1 1 0 6 1
pinlabel=(OC2)PD7
}
P 1300 -3400 1000 -3400 1 0 0
{
T 1350 -3450 5 8 0 1 0 0 1
pintype=io
T 1040 -3370 5 8 1 1 0 0 1
pinnumber=9
T 1040 -3370 5 8 1 1 0 0 1
pinseq=9
T 960 -3400 3 8 1 1 0 6 1
pinlabel=(RXD)PD0
}
P 1300 1600 1000 1600 1 0 0
{
T 1350 1550 5 8 0 1 0 0 1
pintype=io
T 1040 1630 5 8 1 1 0 0 1
pinnumber=3
T 1040 1630 5 8 1 1 0 0 1
pinseq=3
T 960 1600 3 8 1 1 0 6 1
pinlabel=(SCK)PB7
}
P 1300 1000 1000 1000 1 0 0
{
T 1350 950 5 8 0 1 0 0 1
pintype=io
T 1040 1030 5 8 1 1 0 0 1
pinnumber=44
T 1040 1030 5 8 1 1 0 0 1
pinseq=44
T 960 1000 3 8 1 1 0 6 1
pinlabel=(SS)PB4
}
P 1300 200 1000 200 1 0 0
{
T 1350 150 5 8 0 1 0 0 1
pintype=io
T 1040 230 5 8 1 1 0 0 1
pinnumber=40
T 1040 230 5 8 1 1 0 0 1
pinseq=40
T 960 200 3 8 1 1 0 6 1
pinlabel=(T0/XCK)PB0
}
P 1300 400 1000 400 1 0 0
{
T 1350 350 5 8 0 1 0 0 1
pintype=io
T 1040 430 5 8 1 1 0 0 1
pinnumber=41
T 1040 430 5 8 1 1 0 0 1
pinseq=41
T 960 400 3 8 1 1 0 6 1
pinlabel=(T1)PB1
}
P 1300 -1200 1000 -1200 1 0 0
{
T 1350 -1250 5 8 0 1 0 0 1
pintype=io
T 1040 -1170 5 8 1 1 0 0 1
pinnumber=21
T 1040 -1170 5 8 1 1 0 0 1
pinseq=21
T 960 -1200 3 8 1 1 0 6 1
pinlabel=(TCK)PC2
}
P 1300 -600 1000 -600 1 0 0
{
T 1350 -650 5 8 0 1 0 0 1
pintype=io
T 1040 -570 5 8 1 1 0 0 1
pinnumber=24
T 1040 -570 5 8 1 1 0 0 1
pinseq=24
T 960 -600 3 8 1 1 0 6 1
pinlabel=(TDI)PC5
}
P 1300 -800 1000 -800 1 0 0
{
T 1350 -850 5 8 0 1 0 0 1
pintype=io
T 1040 -770 5 8 1 1 0 0 1
pinnumber=23
T 1040 -770 5 8 1 1 0 0 1
pinseq=23
T 960 -800 3 8 1 1 0 6 1
pinlabel=(TDO)PC4
}
P 1300 -1000 1000 -1000 1 0 0
{
T 1350 -1050 5 8 0 1 0 0 1
pintype=io
T 1040 -970 5 8 1 1 0 0 1
pinnumber=22
T 1040 -970 5 8 1 1 0 0 1
pinseq=22
T 960 -1000 3 8 1 1 0 6 1
pinlabel=(TMS)PC3
}
P 1300 -400 1000 -400 1 0 0
{
T 1350 -450 5 8 0 1 0 0 1
pintype=io
T 1040 -370 5 8 1 1 0 0 1
pinnumber=25
T 1040 -370 5 8 1 1 0 0 1
pinseq=25
T 960 -400 3 8 1 1 0 6 1
pinlabel=(TOSC1)PC6
}
P 1300 -200 1000 -200 1 0 0
{
T 1350 -250 5 8 0 1 0 0 1
pintype=io
T 1040 -170 5 8 1 1 0 0 1
pinnumber=26
T 1040 -170 5 8 1 1 0 0 1
pinseq=26
T 960 -200 3 8 1 1 0 6 1
pinlabel=(TOSC2)PC7
}
P 1300 -3200 1000 -3200 1 0 0
{
T 1350 -3250 5 8 0 1 0 0 1
pintype=io
T 1040 -3170 5 8 1 1 0 0 1
pinnumber=10
T 1040 -3170 5 8 1 1 0 0 1
pinseq=10
T 960 -3200 3 8 1 1 0 6 1
pinlabel=(TXD)PD1
}
P -1700 1600 -1400 1600 1 0 0
{
T -1750 1550 5 8 0 1 0 6 1
pintype=pwr
T -1440 1630 5 8 1 1 0 6 1
pinnumber=28
T -1440 1630 5 8 1 1 0 6 1
pinseq=28
T -1360 1600 3 8 1 1 0 0 1
pinlabel=AGND
}
P -1700 2000 -1400 2000 1 0 0
{
T -1750 1950 5 8 0 1 0 6 1
pintype=pas
T -1440 2030 5 8 1 1 0 6 1
pinnumber=29
T -1440 2030 5 8 1 1 0 6 1
pinseq=29
T -1360 2000 3 8 1 1 0 0 1
pinlabel=AREF
}
P -1700 1800 -1400 1800 1 0 0
{
T -1750 1750 5 8 0 1 0 6 1
pintype=pwr
T -1440 1830 5 8 1 1 0 6 1
pinnumber=27
T -1440 1830 5 8 1 1 0 6 1
pinseq=27
T -1360 1800 3 8 1 1 0 0 1
pinlabel=AVCC
}
P -1700 200 -1400 200 1 0 0
{
T -1750 150 5 8 0 1 0 6 1
pintype=pwr
T -1440 230 5 8 1 1 0 6 1
pinnumber=6
T -1440 230 5 8 1 1 0 6 1
pinseq=6
T -1360 200 3 8 1 1 0 0 1
pinlabel=GND
}
P -1700 400 -1400 400 1 0 0
{
T -1750 350 5 8 0 1 0 6 1
pintype=pwr
T -1440 430 5 8 1 1 0 6 1
pinnumber=18
T -1440 430 5 8 1 1 0 6 1
pinseq=18
T -1360 400 3 8 1 1 0 0 1
pinlabel=GND1
}
P -1700 0 -1400 0 1 0 0
{
T -1750 -50 5 8 0 1 0 6 1
pintype=pwr
T -1440 30 5 8 1 1 0 6 1
pinnumber=39
T -1440 30 5 8 1 1 0 6 1
pinseq=39
T -1360 0 3 8 1 1 0 0 1
pinlabel=GND2
}
P 1300 -1600 1000 -1600 1 0 0
{
T 1350 -1650 5 8 0 1 0 0 1
pintype=io
T 1040 -1570 5 8 1 1 0 0 1
pinnumber=19
T 1040 -1570 5 8 1 1 0 0 1
pinseq=19
T 960 -1600 3 8 1 1 0 6 1
pinlabel=PC0(SCL)
}
P 1300 -1400 1000 -1400 1 0 0
{
T 1350 -1450 5 8 0 1 0 0 1
pintype=io
T 1040 -1370 5 8 1 1 0 0 1
pinnumber=20
T 1040 -1370 5 8 1 1 0 0 1
pinseq=20
T 960 -1400 3 8 1 1 0 6 1
pinlabel=PC1(SDA)
}
V -1450 3400 50 6 0 0 0 -1 -1 0 -1 -1 -1 -1 -1
P -1700 3400 -1500 3400 1 0 0
{
T -1750 3350 5 8 0 1 0 6 1
pintype=in
T -1440 3430 5 8 1 1 0 6 1
pinnumber=4
T -1440 3430 5 8 1 1 0 6 1
pinseq=4
T -1360 3400 3 8 1 1 0 0 1
pinlabel=RESET
}
P -1700 1000 -1400 1000 1 0 0
{
T -1750 950 5 8 0 1 0 6 1
pintype=pwr
T -1440 1030 5 8 1 1 0 6 1
pinnumber=5
T -1440 1030 5 8 1 1 0 6 1
pinseq=5
T -1360 1000 3 8 1 1 0 0 1
pinlabel=VCC
}
P -1700 1200 -1400 1200 1 0 0
{
T -1750 1150 5 8 0 1 0 6 1
pintype=pwr
T -1440 1230 5 8 1 1 0 6 1
pinnumber=17
T -1440 1230 5 8 1 1 0 6 1
pinseq=17
T -1360 1200 3 8 1 1 0 0 1
pinlabel=VCC1
}
P -1700 800 -1400 800 1 0 0
{
T -1750 750 5 8 0 1 0 6 1
pintype=pwr
T -1440 830 5 8 1 1 0 6 1
pinnumber=38
T -1440 830 5 8 1 1 0 6 1
pinseq=38
T -1360 800 3 8 1 1 0 0 1
pinlabel=VCC2
}
P -1700 2400 -1400 2400 1 0 0
{
T -1750 2350 5 8 0 1 0 6 1
pintype=io
T -1440 2430 5 8 1 1 0 6 1
pinnumber=8
T -1440 2430 5 8 1 1 0 6 1
pinseq=8
T -1360 2400 3 8 1 1 0 0 1
pinlabel=XTAL1
}
P -1700 2800 -1400 2800 1 0 0
{
T -1750 2750 5 8 0 1 0 6 1
pintype=io
T -1440 2830 5 8 1 1 0 6 1
pinnumber=7
T -1440 2830 5 8 1 1 0 6 1
pinseq=7
T -1360 2800 3 8 1 1 0 0 1
pinlabel=XTAL2
}
