v 20050820 1
T -1891 -3848 9 10 1 0 0 0 1
MEGA163LP
T -1891 4009 5 10 0 0 0 0 1
device=MEGA163LP
T -1891 4109 5 10 0 0 0 0 1
footprint=DIL40
T -1941 4009 8 10 1 1 0 0 1
refdes=U?
L -1200 3600 1200 3600 3 0 0 0 -1 -1
L 1200 3600 1200 -3600 3 0 0 0 -1 -1
L 1200 -3600 -1200 -3600 3 0 0 0 -1 -1
L -1200 -3600 -1200 3600 3 0 0 0 -1 -1
P 1500 2000 1200 2000 1 0 0
{
T 1550 1950 5 8 0 1 0 0 1
pintype=io
T 1240 2030 5 8 1 1 0 0 1
pinnumber=40
T 1240 2030 5 8 1 1 0 0 1
pinseq=40
T 1160 2000 3 8 1 1 0 6 1
pinlabel=(ADC0)PA0
}
P 1500 2200 1200 2200 1 0 0
{
T 1550 2150 5 8 0 1 0 0 1
pintype=io
T 1240 2230 5 8 1 1 0 0 1
pinnumber=39
T 1240 2230 5 8 1 1 0 0 1
pinseq=39
T 1160 2200 3 8 1 1 0 6 1
pinlabel=(ADC1)PA1
}
P 1500 2400 1200 2400 1 0 0
{
T 1550 2350 5 8 0 1 0 0 1
pintype=io
T 1240 2430 5 8 1 1 0 0 1
pinnumber=38
T 1240 2430 5 8 1 1 0 0 1
pinseq=38
T 1160 2400 3 8 1 1 0 6 1
pinlabel=(ADC2)PA2
}
P 1500 2600 1200 2600 1 0 0
{
T 1550 2550 5 8 0 1 0 0 1
pintype=io
T 1240 2630 5 8 1 1 0 0 1
pinnumber=37
T 1240 2630 5 8 1 1 0 0 1
pinseq=37
T 1160 2600 3 8 1 1 0 6 1
pinlabel=(ADC3)PA3
}
P 1500 2800 1200 2800 1 0 0
{
T 1550 2750 5 8 0 1 0 0 1
pintype=io
T 1240 2830 5 8 1 1 0 0 1
pinnumber=36
T 1240 2830 5 8 1 1 0 0 1
pinseq=36
T 1160 2800 3 8 1 1 0 6 1
pinlabel=(ADC4)PA4
}
P 1500 3000 1200 3000 1 0 0
{
T 1550 2950 5 8 0 1 0 0 1
pintype=io
T 1240 3030 5 8 1 1 0 0 1
pinnumber=35
T 1240 3030 5 8 1 1 0 0 1
pinseq=35
T 1160 3000 3 8 1 1 0 6 1
pinlabel=(ADC5)PA5
}
P 1500 3200 1200 3200 1 0 0
{
T 1550 3150 5 8 0 1 0 0 1
pintype=io
T 1240 3230 5 8 1 1 0 0 1
pinnumber=34
T 1240 3230 5 8 1 1 0 0 1
pinseq=34
T 1160 3200 3 8 1 1 0 6 1
pinlabel=(ADC6)PA6
}
P 1500 3400 1200 3400 1 0 0
{
T 1550 3350 5 8 0 1 0 0 1
pintype=io
T 1240 3430 5 8 1 1 0 0 1
pinnumber=33
T 1240 3430 5 8 1 1 0 0 1
pinseq=33
T 1160 3400 3 8 1 1 0 6 1
pinlabel=(ADC7)PA7
}
P 1500 600 1200 600 1 0 0
{
T 1550 550 5 8 0 1 0 0 1
pintype=io
T 1240 630 5 8 1 1 0 0 1
pinnumber=3
T 1240 630 5 8 1 1 0 0 1
pinseq=3
T 1160 600 3 8 1 1 0 6 1
pinlabel=(AIN0)PB2
}
P 1500 800 1200 800 1 0 0
{
T 1550 750 5 8 0 1 0 0 1
pintype=io
T 1240 830 5 8 1 1 0 0 1
pinnumber=4
T 1240 830 5 8 1 1 0 0 1
pinseq=4
T 1160 800 3 8 1 1 0 6 1
pinlabel=(AIN1)PB3
}
P 1500 -2200 1200 -2200 1 0 0
{
T 1550 -2250 5 8 0 1 0 0 1
pintype=io
T 1240 -2170 5 8 1 1 0 0 1
pinnumber=20
T 1240 -2170 5 8 1 1 0 0 1
pinseq=20
T 1160 -2200 3 8 1 1 0 6 1
pinlabel=(ICP)PD6
}
P 1500 -3000 1200 -3000 1 0 0
{
T 1550 -3050 5 8 0 1 0 0 1
pintype=io
T 1240 -2970 5 8 1 1 0 0 1
pinnumber=16
T 1240 -2970 5 8 1 1 0 0 1
pinseq=16
T 1160 -3000 3 8 1 1 0 6 1
pinlabel=(INT0)PD2
}
P 1500 -2800 1200 -2800 1 0 0
{
T 1550 -2850 5 8 0 1 0 0 1
pintype=io
T 1240 -2770 5 8 1 1 0 0 1
pinnumber=17
T 1240 -2770 5 8 1 1 0 0 1
pinseq=17
T 1160 -2800 3 8 1 1 0 6 1
pinlabel=(INT1)PD3
}
P 1500 1400 1200 1400 1 0 0
{
T 1550 1350 5 8 0 1 0 0 1
pintype=io
T 1240 1430 5 8 1 1 0 0 1
pinnumber=7
T 1240 1430 5 8 1 1 0 0 1
pinseq=7
T 1160 1400 3 8 1 1 0 6 1
pinlabel=(MISO)PB6
}
P 1500 1200 1200 1200 1 0 0
{
T 1550 1150 5 8 0 1 0 0 1
pintype=io
T 1240 1230 5 8 1 1 0 0 1
pinnumber=6
T 1240 1230 5 8 1 1 0 0 1
pinseq=6
T 1160 1200 3 8 1 1 0 6 1
pinlabel=(MOSI)PB5
}
P 1500 -2400 1200 -2400 1 0 0
{
T 1550 -2450 5 8 0 1 0 0 1
pintype=io
T 1240 -2370 5 8 1 1 0 0 1
pinnumber=19
T 1240 -2370 5 8 1 1 0 0 1
pinseq=19
T 1160 -2400 3 8 1 1 0 6 1
pinlabel=(OC1A)PD5
}
P 1500 -2600 1200 -2600 1 0 0
{
T 1550 -2650 5 8 0 1 0 0 1
pintype=io
T 1240 -2570 5 8 1 1 0 0 1
pinnumber=18
T 1240 -2570 5 8 1 1 0 0 1
pinseq=18
T 1160 -2600 3 8 1 1 0 6 1
pinlabel=(OC1B)PD4
}
P 1500 -2000 1200 -2000 1 0 0
{
T 1550 -2050 5 8 0 1 0 0 1
pintype=io
T 1240 -1970 5 8 1 1 0 0 1
pinnumber=21
T 1240 -1970 5 8 1 1 0 0 1
pinseq=21
T 1160 -2000 3 8 1 1 0 6 1
pinlabel=(OC2)PD7
}
P 1500 -3400 1200 -3400 1 0 0
{
T 1550 -3450 5 8 0 1 0 0 1
pintype=io
T 1240 -3370 5 8 1 1 0 0 1
pinnumber=14
T 1240 -3370 5 8 1 1 0 0 1
pinseq=14
T 1160 -3400 3 8 1 1 0 6 1
pinlabel=(RXD)PD0
}
P 1500 1600 1200 1600 1 0 0
{
T 1550 1550 5 8 0 1 0 0 1
pintype=io
T 1240 1630 5 8 1 1 0 0 1
pinnumber=8
T 1240 1630 5 8 1 1 0 0 1
pinseq=8
T 1160 1600 3 8 1 1 0 6 1
pinlabel=(SCK)PB7
}
P 1500 -1600 1200 -1600 1 0 0
{
T 1550 -1650 5 8 0 1 0 0 1
pintype=io
T 1240 -1570 5 8 1 1 0 0 1
pinnumber=22
T 1240 -1570 5 8 1 1 0 0 1
pinseq=22
T 1160 -1600 3 8 1 1 0 6 1
pinlabel=(SCL)PC0
}
P 1500 -1400 1200 -1400 1 0 0
{
T 1550 -1450 5 8 0 1 0 0 1
pintype=io
T 1240 -1370 5 8 1 1 0 0 1
pinnumber=23
T 1240 -1370 5 8 1 1 0 0 1
pinseq=23
T 1160 -1400 3 8 1 1 0 6 1
pinlabel=(SDA)PC1
}
P 1500 1000 1200 1000 1 0 0
{
T 1550 950 5 8 0 1 0 0 1
pintype=io
T 1240 1030 5 8 1 1 0 0 1
pinnumber=5
T 1240 1030 5 8 1 1 0 0 1
pinseq=5
T 1160 1000 3 8 1 1 0 6 1
pinlabel=(SS)PB4
}
P 1500 200 1200 200 1 0 0
{
T 1550 150 5 8 0 1 0 0 1
pintype=io
T 1240 230 5 8 1 1 0 0 1
pinnumber=1
T 1240 230 5 8 1 1 0 0 1
pinseq=1
T 1160 200 3 8 1 1 0 6 1
pinlabel=(T0)PB0
}
P 1500 400 1200 400 1 0 0
{
T 1550 350 5 8 0 1 0 0 1
pintype=io
T 1240 430 5 8 1 1 0 0 1
pinnumber=2
T 1240 430 5 8 1 1 0 0 1
pinseq=2
T 1160 400 3 8 1 1 0 6 1
pinlabel=(T1)PB1
}
P 1500 -400 1200 -400 1 0 0
{
T 1550 -450 5 8 0 1 0 0 1
pintype=io
T 1240 -370 5 8 1 1 0 0 1
pinnumber=28
T 1240 -370 5 8 1 1 0 0 1
pinseq=28
T 1160 -400 3 8 1 1 0 6 1
pinlabel=(TOSC1)PC6
}
P 1500 -200 1200 -200 1 0 0
{
T 1550 -250 5 8 0 1 0 0 1
pintype=io
T 1240 -170 5 8 1 1 0 0 1
pinnumber=29
T 1240 -170 5 8 1 1 0 0 1
pinseq=29
T 1160 -200 3 8 1 1 0 6 1
pinlabel=(TOSC2)PC7
}
P 1500 -3200 1200 -3200 1 0 0
{
T 1550 -3250 5 8 0 1 0 0 1
pintype=io
T 1240 -3170 5 8 1 1 0 0 1
pinnumber=15
T 1240 -3170 5 8 1 1 0 0 1
pinseq=15
T 1160 -3200 3 8 1 1 0 6 1
pinlabel=(TXD)PD1
}
P -1500 1600 -1200 1600 1 0 0
{
T -1550 1550 5 8 0 1 0 6 1
pintype=pwr
T -1240 1630 5 8 1 1 0 6 1
pinnumber=31
T -1240 1630 5 8 1 1 0 6 1
pinseq=31
T -1160 1600 3 8 1 1 0 0 1
pinlabel=AGND
}
P -1500 2000 -1200 2000 1 0 0
{
T -1550 1950 5 8 0 1 0 6 1
pintype=pas
T -1240 2030 5 8 1 1 0 6 1
pinnumber=32
T -1240 2030 5 8 1 1 0 6 1
pinseq=32
T -1160 2000 3 8 1 1 0 0 1
pinlabel=AREF
}
P -1500 1800 -1200 1800 1 0 0
{
T -1550 1750 5 8 0 1 0 6 1
pintype=pwr
T -1240 1830 5 8 1 1 0 6 1
pinnumber=30
T -1240 1830 5 8 1 1 0 6 1
pinseq=30
T -1160 1800 3 8 1 1 0 0 1
pinlabel=AVCC
}
P -1500 1000 -1200 1000 1 0 0
{
T -1550 950 5 8 0 1 0 6 1
pintype=pwr
T -1240 1030 5 8 1 1 0 6 1
pinnumber=11
T -1240 1030 5 8 1 1 0 6 1
pinseq=11
T -1160 1000 3 8 1 1 0 0 1
pinlabel=GND
}
P 1500 -1200 1200 -1200 1 0 0
{
T 1550 -1250 5 8 0 1 0 0 1
pintype=io
T 1240 -1170 5 8 1 1 0 0 1
pinnumber=24
T 1240 -1170 5 8 1 1 0 0 1
pinseq=24
T 1160 -1200 3 8 1 1 0 6 1
pinlabel=PC2
}
P 1500 -1000 1200 -1000 1 0 0
{
T 1550 -1050 5 8 0 1 0 0 1
pintype=io
T 1240 -970 5 8 1 1 0 0 1
pinnumber=25
T 1240 -970 5 8 1 1 0 0 1
pinseq=25
T 1160 -1000 3 8 1 1 0 6 1
pinlabel=PC3
}
P 1500 -800 1200 -800 1 0 0
{
T 1550 -850 5 8 0 1 0 0 1
pintype=io
T 1240 -770 5 8 1 1 0 0 1
pinnumber=26
T 1240 -770 5 8 1 1 0 0 1
pinseq=26
T 1160 -800 3 8 1 1 0 6 1
pinlabel=PC4
}
P 1500 -600 1200 -600 1 0 0
{
T 1550 -650 5 8 0 1 0 0 1
pintype=io
T 1240 -570 5 8 1 1 0 0 1
pinnumber=27
T 1240 -570 5 8 1 1 0 0 1
pinseq=27
T 1160 -600 3 8 1 1 0 6 1
pinlabel=PC5
}
V -1250 3400 50 6 0 0 0 -1 -1 0 -1 -1 -1 -1 -1
P -1500 3400 -1300 3400 1 0 0
{
T -1550 3350 5 8 0 1 0 6 1
pintype=in
T -1240 3430 5 8 1 1 0 6 1
pinnumber=9
T -1240 3430 5 8 1 1 0 6 1
pinseq=9
T -1160 3400 3 8 1 1 0 0 1
pinlabel=RESET
}
P -1500 1200 -1200 1200 1 0 0
{
T -1550 1150 5 8 0 1 0 6 1
pintype=pwr
T -1240 1230 5 8 1 1 0 6 1
pinnumber=10
T -1240 1230 5 8 1 1 0 6 1
pinseq=10
T -1160 1200 3 8 1 1 0 0 1
pinlabel=VCC
}
P -1500 2400 -1200 2400 1 0 0
{
T -1550 2350 5 8 0 1 0 6 1
pintype=io
T -1240 2430 5 8 1 1 0 6 1
pinnumber=13
T -1240 2430 5 8 1 1 0 6 1
pinseq=13
T -1160 2400 3 8 1 1 0 0 1
pinlabel=XTAL1
}
P -1500 2800 -1200 2800 1 0 0
{
T -1550 2750 5 8 0 1 0 6 1
pintype=io
T -1240 2830 5 8 1 1 0 6 1
pinnumber=12
T -1240 2830 5 8 1 1 0 6 1
pinseq=12
T -1160 2800 3 8 1 1 0 0 1
pinlabel=XTAL2
}
