v 20050820 1
T -2090 -2048 9 10 1 0 0 0 1
T89C51CC02UA-TDSIM
T -2090 2598 5 10 0 0 0 0 1
device=T89C51CC02UA-TDSIM
T -2090 2698 5 10 0 0 0 0 1
footprint=SO24W
T -2140 2598 8 10 1 1 0 0 1
refdes=U?
L -1400 -1800 1400 -1800 3 0 0 0 -1 -1
L 1400 -1800 1400 2200 3 0 0 0 -1 -1
L 1400 2200 -1400 2200 3 0 0 0 -1 -1
L -1400 2200 -1400 -1800 3 0 0 0 -1 -1
P 1700 1000 1400 1000 1 0 0
{
T 1750 950 5 8 0 1 0 0 1
pintype=io
T 1440 1030 5 8 1 1 0 0 1
pinnumber=24
T 1440 1030 5 8 1 1 0 0 1
pinseq=24
T 1360 1000 3 8 1 1 0 6 1
pinlabel=P1.0/AN0/T2
}
P 1700 800 1400 800 1 0 0
{
T 1750 750 5 8 0 1 0 0 1
pintype=io
T 1440 830 5 8 1 1 0 0 1
pinnumber=23
T 1440 830 5 8 1 1 0 0 1
pinseq=23
T 1360 800 3 8 1 1 0 6 1
pinlabel=P1.1/AN1/T2EX
}
P 1700 600 1400 600 1 0 0
{
T 1750 550 5 8 0 1 0 0 1
pintype=io
T 1440 630 5 8 1 1 0 0 1
pinnumber=22
T 1440 630 5 8 1 1 0 0 1
pinseq=22
T 1360 600 3 8 1 1 0 6 1
pinlabel=P1.2/AN2/ECI
}
P 1700 400 1400 400 1 0 0
{
T 1750 350 5 8 0 1 0 0 1
pintype=io
T 1440 430 5 8 1 1 0 0 1
pinnumber=21
T 1440 430 5 8 1 1 0 0 1
pinseq=21
T 1360 400 3 8 1 1 0 6 1
pinlabel=P1.3/AN3/CEX0
}
P 1700 200 1400 200 1 0 0
{
T 1750 150 5 8 0 1 0 0 1
pintype=io
T 1440 230 5 8 1 1 0 0 1
pinnumber=20
T 1440 230 5 8 1 1 0 0 1
pinseq=20
T 1360 200 3 8 1 1 0 6 1
pinlabel=P1.4/AN4/CEX1
}
P 1700 0 1400 0 1 0 0
{
T 1750 -50 5 8 0 1 0 0 1
pintype=io
T 1440 30 5 8 1 1 0 0 1
pinnumber=19
T 1440 30 5 8 1 1 0 0 1
pinseq=19
T 1360 0 3 8 1 1 0 6 1
pinlabel=P1.5/AN5
}
P 1700 -200 1400 -200 1 0 0
{
T 1750 -250 5 8 0 1 0 0 1
pintype=io
T 1440 -170 5 8 1 1 0 0 1
pinnumber=18
T 1440 -170 5 8 1 1 0 0 1
pinseq=18
T 1360 -200 3 8 1 1 0 6 1
pinlabel=P1.6/AN6
}
P 1700 -400 1400 -400 1 0 0
{
T 1750 -450 5 8 0 1 0 0 1
pintype=io
T 1440 -370 5 8 1 1 0 0 1
pinnumber=17
T 1440 -370 5 8 1 1 0 0 1
pinseq=17
T 1360 -400 3 8 1 1 0 6 1
pinlabel=P1.7/AN7
}
P -1700 600 -1400 600 1 0 0
{
T -1750 550 5 8 0 1 0 6 1
pintype=io
T -1440 630 5 8 1 1 0 6 1
pinnumber=11
T -1440 630 5 8 1 1 0 6 1
pinseq=11
T -1360 600 3 8 1 1 0 0 1
pinlabel=P3.0/RXD
}
P -1700 400 -1400 400 1 0 0
{
T -1750 350 5 8 0 1 0 6 1
pintype=io
T -1440 430 5 8 1 1 0 6 1
pinnumber=10
T -1440 430 5 8 1 1 0 6 1
pinseq=10
T -1360 400 3 8 1 1 0 0 1
pinlabel=P3.1/TXD
}
P -1700 200 -1400 200 1 0 0
{
T -1750 150 5 8 0 1 0 6 1
pintype=io
T -1440 230 5 8 1 1 0 6 1
pinnumber=9
T -1440 230 5 8 1 1 0 6 1
pinseq=9
T -1360 200 3 8 1 1 0 0 1
pinlabel=P3.2/!INT
}
P -1700 0 -1400 0 1 0 0
{
T -1750 -50 5 8 0 1 0 6 1
pintype=io
T -1440 30 5 8 1 1 0 6 1
pinnumber=8
T -1440 30 5 8 1 1 0 6 1
pinseq=8
T -1360 0 3 8 1 1 0 0 1
pinlabel=P3.3/!INT1
}
P -1700 -200 -1400 -200 1 0 0
{
T -1750 -250 5 8 0 1 0 6 1
pintype=io
T -1440 -170 5 8 1 1 0 6 1
pinnumber=7
T -1440 -170 5 8 1 1 0 6 1
pinseq=7
T -1360 -200 3 8 1 1 0 0 1
pinlabel=P3.4/T0
}
P -1700 -400 -1400 -400 1 0 0
{
T -1750 -450 5 8 0 1 0 6 1
pintype=io
T -1440 -370 5 8 1 1 0 6 1
pinnumber=6
T -1440 -370 5 8 1 1 0 6 1
pinseq=6
T -1360 -400 3 8 1 1 0 0 1
pinlabel=P3.5/T1
}
P -1700 -1200 -1400 -1200 1 0 0
{
T -1750 -1250 5 8 0 1 0 6 1
pintype=io
T -1440 -1170 5 8 1 1 0 6 1
pinnumber=5
T -1440 -1170 5 8 1 1 0 6 1
pinseq=5
T -1360 -1200 3 8 1 1 0 0 1
pinlabel=P4.0/RXDC
}
P -1700 -1400 -1400 -1400 1 0 0
{
T -1750 -1450 5 8 0 1 0 6 1
pintype=io
T -1440 -1370 5 8 1 1 0 6 1
pinnumber=4
T -1440 -1370 5 8 1 1 0 6 1
pinseq=4
T -1360 -1400 3 8 1 1 0 0 1
pinlabel=P4.1/TXDC
}
P -1700 2000 -1400 2000 1 0 0
{
T -1750 1950 5 8 0 1 0 6 1
pintype=in
T -1440 2030 5 8 1 1 0 6 1
pinnumber=16
T -1440 2030 5 8 1 1 0 6 1
pinseq=16
T -1360 2000 3 8 1 1 0 0 1
pinlabel=RST
}
P 1700 -1200 1400 -1200 1 0 0
{
T 1750 -1250 5 8 0 1 0 0 1
pintype=in
T 1440 -1170 5 8 1 1 0 0 1
pinnumber=2
T 1440 -1170 5 8 1 1 0 0 1
pinseq=2
T 1360 -1200 3 8 1 1 0 6 1
pinlabel=VAGND
}
P 1700 -1000 1400 -1000 1 0 0
{
T 1750 -1050 5 8 0 1 0 0 1
pintype=in
T 1440 -970 5 8 1 1 0 0 1
pinnumber=1
T 1440 -970 5 8 1 1 0 0 1
pinseq=1
T 1360 -1000 3 8 1 1 0 6 1
pinlabel=VAREF
}
P 1700 -800 1400 -800 1 0 0
{
T 1750 -850 5 8 0 1 0 0 1
pintype=in
T 1440 -770 5 8 1 1 0 0 1
pinnumber=3
T 1440 -770 5 8 1 1 0 0 1
pinseq=3
T 1360 -800 3 8 1 1 0 6 1
pinlabel=VAVCC
}
P 1700 2000 1400 2000 1 0 0
{
T 1750 1950 5 8 0 1 0 0 1
pintype=pwr
T 1440 2030 5 8 1 1 0 0 1
pinnumber=14
T 1440 2030 5 8 1 1 0 0 1
pinseq=14
T 1360 2000 3 8 1 1 0 6 1
pinlabel=VCC
}
P 1700 -1600 1400 -1600 1 0 0
{
T 1750 -1650 5 8 0 1 0 0 1
pintype=pwr
T 1440 -1570 5 8 1 1 0 0 1
pinnumber=15
T 1440 -1570 5 8 1 1 0 0 1
pinseq=15
T 1360 -1600 3 8 1 1 0 6 1
pinlabel=VSS
}
P -1700 1600 -1400 1600 1 0 0
{
T -1750 1550 5 8 0 1 0 6 1
pintype=in
T -1440 1630 5 8 1 1 0 6 1
pinnumber=13
T -1440 1630 5 8 1 1 0 6 1
pinseq=13
T -1360 1600 3 8 1 1 0 0 1
pinlabel=XTAL1
}
P -1700 1200 -1400 1200 1 0 0
{
T -1750 1150 5 8 0 1 0 6 1
pintype=in
T -1440 1230 5 8 1 1 0 6 1
pinnumber=12
T -1440 1230 5 8 1 1 0 6 1
pinseq=12
T -1360 1200 3 8 1 1 0 0 1
pinlabel=XTAL2
}
