v 20050820 1
T -1691 -848 9 10 1 0 0 0 1
TINY11S
T -1691 1209 5 10 0 0 0 0 1
device=TINY11S
T -1691 1309 5 10 0 0 0 0 1
footprint=SOIC8
T -1741 1209 8 10 1 1 0 0 1
refdes=U?
L 1000 -600 -1000 -600 3 0 0 0 -1 -1
L -1000 -600 -1000 800 3 0 0 0 -1 -1
L -1000 800 1000 800 3 0 0 0 -1 -1
L 1000 800 1000 -600 3 0 0 0 -1 -1
P 1300 -400 1000 -400 1 0 0
{
T 1350 -450 5 8 0 1 0 0 1
pintype=io
T 1040 -370 5 8 1 1 0 0 1
pinnumber=5
T 1040 -370 5 8 1 1 0 0 1
pinseq=5
T 960 -400 3 8 1 1 0 6 1
pinlabel=(AIN0)PB0
}
P 1300 -200 1000 -200 1 0 0
{
T 1350 -250 5 8 0 1 0 0 1
pintype=io
T 1040 -170 5 8 1 1 0 0 1
pinnumber=6
T 1040 -170 5 8 1 1 0 0 1
pinseq=6
T 960 -200 3 8 1 1 0 6 1
pinlabel=(AIN1)PB1
}
P 1300 600 1000 600 1 0 0
{
T 1350 550 5 8 0 1 0 0 1
pintype=io
T 1040 630 5 8 1 1 0 0 1
pinnumber=1
T 1040 630 5 8 1 1 0 0 1
pinseq=1
T 960 600 3 8 1 1 0 6 1
pinlabel=(RESET)PB5
}
P 1300 0 1000 0 1 0 0
{
T 1350 -50 5 8 0 1 0 0 1
pintype=io
T 1040 30 5 8 1 1 0 0 1
pinnumber=7
T 1040 30 5 8 1 1 0 0 1
pinseq=7
T 960 0 3 8 1 1 0 6 1
pinlabel=(T0)PB2
}
P 1300 200 1000 200 1 0 0
{
T 1350 150 5 8 0 1 0 0 1
pintype=io
T 1040 230 5 8 1 1 0 0 1
pinnumber=2
T 1040 230 5 8 1 1 0 0 1
pinseq=2
T 960 200 3 8 1 1 0 6 1
pinlabel=(XTAL1)PB3
}
P 1300 400 1000 400 1 0 0
{
T 1350 350 5 8 0 1 0 0 1
pintype=io
T 1040 430 5 8 1 1 0 0 1
pinnumber=3
T 1040 430 5 8 1 1 0 0 1
pinseq=3
T 960 400 3 8 1 1 0 6 1
pinlabel=(XTAL2)PB4
}
P -1300 -400 -1000 -400 1 0 0
{
T -1350 -450 5 8 0 1 0 6 1
pintype=pwr
T -1040 -370 5 8 1 1 0 6 1
pinnumber=4
T -1040 -370 5 8 1 1 0 6 1
pinseq=4
T -960 -400 3 8 1 1 0 0 1
pinlabel=GND
}
P -1300 -200 -1000 -200 1 0 0
{
T -1350 -250 5 8 0 1 0 6 1
pintype=pwr
T -1040 -170 5 8 1 1 0 6 1
pinnumber=8
T -1040 -170 5 8 1 1 0 6 1
pinseq=8
T -960 -200 3 8 1 1 0 0 1
pinlabel=VCC
}
