v 20050820 1
T -1891 -848 9 10 1 0 0 0 1
TINY13-20PU
T -1891 1648 5 10 0 0 0 0 1
device=TINY13-20PU
T -1891 1748 5 10 0 0 0 0 1
footprint=DIL08
T -1941 1648 8 10 1 1 0 0 1
refdes=U?
L -1400 1200 2000 1200 3 0 0 0 -1 -1
L 2000 1200 2000 -600 3 0 0 0 -1 -1
L 2000 -600 -1400 -600 3 0 0 0 -1 -1
L -1400 -600 -1400 1200 3 0 0 0 -1 -1
P -1700 -400 -1400 -400 1 0 0
{
T -1750 -450 5 8 0 1 0 6 1
pintype=pwr
T -1440 -370 5 8 1 1 0 6 1
pinnumber=4
T -1440 -370 5 8 1 1 0 6 1
pinseq=4
T -1360 -400 3 8 1 1 0 0 1
pinlabel=GND
}
P -1700 800 -1400 800 1 0 0
{
T -1750 750 5 8 0 1 0 6 1
pintype=io
T -1440 830 5 8 1 1 0 6 1
pinnumber=5
T -1440 830 5 8 1 1 0 6 1
pinseq=5
T -1360 800 3 8 1 1 0 0 1
pinlabel=PB0/PCINT0/AIN0/OC0A/MOSI
}
P -1700 600 -1400 600 1 0 0
{
T -1750 550 5 8 0 1 0 6 1
pintype=io
T -1440 630 5 8 1 1 0 6 1
pinnumber=6
T -1440 630 5 8 1 1 0 6 1
pinseq=6
T -1360 600 3 8 1 1 0 0 1
pinlabel=PB1/PCINT1/AIN1/OC0B/INT0/MISO
}
P -1700 400 -1400 400 1 0 0
{
T -1750 350 5 8 0 1 0 6 1
pintype=io
T -1440 430 5 8 1 1 0 6 1
pinnumber=7
T -1440 430 5 8 1 1 0 6 1
pinseq=7
T -1360 400 3 8 1 1 0 0 1
pinlabel=PB2/PCINT2/SCK/ADC1/T0
}
P -1700 200 -1400 200 1 0 0
{
T -1750 150 5 8 0 1 0 6 1
pintype=io
T -1440 230 5 8 1 1 0 6 1
pinnumber=2
T -1440 230 5 8 1 1 0 6 1
pinseq=2
T -1360 200 3 8 1 1 0 0 1
pinlabel=PB3/PCINT3/CLKI/ADC3
}
P -1700 0 -1400 0 1 0 0
{
T -1750 -50 5 8 0 1 0 6 1
pintype=io
T -1440 30 5 8 1 1 0 6 1
pinnumber=3
T -1440 30 5 8 1 1 0 6 1
pinseq=3
T -1360 0 3 8 1 1 0 0 1
pinlabel=PB4/PCINT4/ADC2
}
P -1700 -200 -1400 -200 1 0 0
{
T -1750 -250 5 8 0 1 0 6 1
pintype=io
T -1440 -170 5 8 1 1 0 6 1
pinnumber=1
T -1440 -170 5 8 1 1 0 6 1
pinseq=1
T -1360 -200 3 8 1 1 0 0 1
pinlabel=PB5/PCINT5/!RESET!/ADC0/DW
}
P -1700 1000 -1400 1000 1 0 0
{
T -1750 950 5 8 0 1 0 6 1
pintype=pwr
T -1440 1030 5 8 1 1 0 6 1
pinnumber=8
T -1440 1030 5 8 1 1 0 6 1
pinseq=8
T -1360 1000 3 8 1 1 0 0 1
pinlabel=VCC
}
