v 20050820 1
T -1691 -2547 9 10 1 0 0 0 1
FT232BM
T -1691 2648 5 10 0 0 0 0 1
device=FT232BM
T -1691 2748 5 10 0 0 0 0 1
footprint=QFP-32
T -1741 2648 8 10 1 1 0 0 1
refdes=U?
L -1000 2200 1000 2200 3 0 0 0 -1 -1
L 1000 2200 1000 -2200 3 0 0 0 -1 -1
L 1000 -2200 -1000 -2200 3 0 0 0 -1 -1
L -1000 -2200 -1000 2200 3 0 0 0 -1 -1
P -1300 1400 -1000 1400 1 0 0
{
T -1350 1350 5 8 0 1 0 6 1
pintype=out
T -1040 1430 5 8 1 1 0 6 1
pinnumber=6
T -1040 1430 5 8 1 1 0 6 1
pinseq=6
T -960 1400 3 8 1 1 0 0 1
pinlabel=3V3OUT
}
P 1300 -2000 1000 -2000 1 0 0
{
T 1350 -2050 5 8 0 1 0 0 1
pintype=in
T 1040 -1970 5 8 1 1 0 0 1
pinnumber=29
T 1040 -1970 5 8 1 1 0 0 1
pinseq=29
T 960 -2000 3 8 1 1 0 6 1
pinlabel=AGND
}
P 1300 2000 1000 2000 1 0 0
{
T 1350 1950 5 8 0 1 0 0 1
pintype=in
T 1040 2030 5 8 1 1 0 0 1
pinnumber=30
T 1040 2030 5 8 1 1 0 0 1
pinseq=30
T 960 2000 3 8 1 1 0 6 1
pinlabel=AVCC
}
P 1300 800 1000 800 1 0 0
{
T 1350 750 5 8 0 1 0 0 1
pintype=in
T 1040 830 5 8 1 1 0 0 1
pinnumber=22
T 1040 830 5 8 1 1 0 0 1
pinseq=22
T 960 800 3 8 1 1 0 6 1
pinlabel=CTS
}
P 1300 200 1000 200 1 0 0
{
T 1350 150 5 8 0 1 0 0 1
pintype=in
T 1040 230 5 8 1 1 0 0 1
pinnumber=19
T 1040 230 5 8 1 1 0 0 1
pinseq=19
T 960 200 3 8 1 1 0 6 1
pinlabel=DCD
}
P 1300 400 1000 400 1 0 0
{
T 1350 350 5 8 0 1 0 0 1
pintype=in
T 1040 430 5 8 1 1 0 0 1
pinnumber=20
T 1040 430 5 8 1 1 0 0 1
pinseq=20
T 960 400 3 8 1 1 0 6 1
pinlabel=DSR
}
P 1300 600 1000 600 1 0 0
{
T 1350 550 5 8 0 1 0 0 1
pintype=out
T 1040 630 5 8 1 1 0 0 1
pinnumber=21
T 1040 630 5 8 1 1 0 0 1
pinseq=21
T 960 600 3 8 1 1 0 6 1
pinlabel=DTR
}
P -1300 -800 -1000 -800 1 0 0
{
T -1350 -850 5 8 0 1 0 6 1
pintype=io
T -1040 -770 5 8 1 1 0 6 1
pinnumber=32
T -1040 -770 5 8 1 1 0 6 1
pinseq=32
T -960 -800 3 8 1 1 0 0 1
pinlabel=EECS
}
P -1300 -1200 -1000 -1200 1 0 0
{
T -1350 -1250 5 8 0 1 0 6 1
pintype=io
T -1040 -1170 5 8 1 1 0 6 1
pinnumber=2
T -1040 -1170 5 8 1 1 0 6 1
pinseq=2
T -960 -1200 3 8 1 1 0 0 1
pinlabel=EEDATA
}
P -1300 -1000 -1000 -1000 1 0 0
{
T -1350 -1050 5 8 0 1 0 6 1
pintype=io
T -1040 -970 5 8 1 1 0 6 1
pinnumber=1
T -1040 -970 5 8 1 1 0 6 1
pinseq=1
T -960 -1000 3 8 1 1 0 0 1
pinlabel=EESK
}
P -1300 -1800 -1000 -1800 1 0 0
{
T -1350 -1850 5 8 0 1 0 6 1
pintype=in
T -1040 -1770 5 8 1 1 0 6 1
pinnumber=9
T -1040 -1770 5 8 1 1 0 6 1
pinseq=9
T -960 -1800 3 8 1 1 0 0 1
pinlabel=GND1
}
P -1300 -2000 -1000 -2000 1 0 0
{
T -1350 -2050 5 8 0 1 0 6 1
pintype=in
T -1040 -1970 5 8 1 1 0 6 1
pinnumber=17
T -1040 -1970 5 8 1 1 0 6 1
pinseq=17
T -960 -2000 3 8 1 1 0 0 1
pinlabel=GND2
}
P 1300 -1200 1000 -1200 1 0 0
{
T 1350 -1250 5 8 0 1 0 0 1
pintype=in
T 1040 -1170 5 8 1 1 0 0 1
pinnumber=14
T 1040 -1170 5 8 1 1 0 0 1
pinseq=14
T 960 -1200 3 8 1 1 0 6 1
pinlabel=PWRCTL
}
P 1300 -1400 1000 -1400 1 0 0
{
T 1350 -1450 5 8 0 1 0 0 1
pintype=out
T 1040 -1370 5 8 1 1 0 0 1
pinnumber=15
T 1040 -1370 5 8 1 1 0 0 1
pinseq=15
T 960 -1400 3 8 1 1 0 6 1
pinlabel=PWREN
}
P -1300 200 -1000 200 1 0 0
{
T -1350 150 5 8 0 1 0 6 1
pintype=in
T -1040 230 5 8 1 1 0 6 1
pinnumber=4
T -1040 230 5 8 1 1 0 6 1
pinseq=4
T -960 200 3 8 1 1 0 0 1
pinlabel=RESET
}
P 1300 0 1000 0 1 0 0
{
T 1350 -50 5 8 0 1 0 0 1
pintype=in
T 1040 30 5 8 1 1 0 0 1
pinnumber=18
T 1040 30 5 8 1 1 0 0 1
pinseq=18
T 960 0 3 8 1 1 0 6 1
pinlabel=RI
}
P -1300 400 -1000 400 1 0 0
{
T -1350 350 5 8 0 1 0 6 1
pintype=out
T -1040 430 5 8 1 1 0 6 1
pinnumber=5
T -1040 430 5 8 1 1 0 6 1
pinseq=5
T -960 400 3 8 1 1 0 0 1
pinlabel=RSTOUT
}
P 1300 1000 1000 1000 1 0 0
{
T 1350 950 5 8 0 1 0 0 1
pintype=out
T 1040 1030 5 8 1 1 0 0 1
pinnumber=23
T 1040 1030 5 8 1 1 0 0 1
pinseq=23
T 960 1000 3 8 1 1 0 6 1
pinlabel=RTS
}
P 1300 1200 1000 1200 1 0 0
{
T 1350 1150 5 8 0 1 0 0 1
pintype=in
T 1040 1230 5 8 1 1 0 0 1
pinnumber=24
T 1040 1230 5 8 1 1 0 0 1
pinseq=24
T 960 1200 3 8 1 1 0 6 1
pinlabel=RXD
}
P 1300 -800 1000 -800 1 0 0
{
T 1350 -850 5 8 0 1 0 0 1
pintype=oc
T 1040 -770 5 8 1 1 0 0 1
pinnumber=11
T 1040 -770 5 8 1 1 0 0 1
pinseq=11
T 960 -800 3 8 1 1 0 6 1
pinlabel=RXLED
}
P 1300 -1600 1000 -1600 1 0 0
{
T 1350 -1650 5 8 0 1 0 0 1
pintype=out
T 1040 -1570 5 8 1 1 0 0 1
pinnumber=10
T 1040 -1570 5 8 1 1 0 0 1
pinseq=10
T 960 -1600 3 8 1 1 0 6 1
pinlabel=SLEEP
}
P -1300 -1400 -1000 -1400 1 0 0
{
T -1350 -1450 5 8 0 1 0 6 1
pintype=in
T -1040 -1370 5 8 1 1 0 6 1
pinnumber=31
T -1040 -1370 5 8 1 1 0 6 1
pinseq=31
T -960 -1400 3 8 1 1 0 0 1
pinlabel=TEST
}
P 1300 1400 1000 1400 1 0 0
{
T 1350 1350 5 8 0 1 0 0 1
pintype=out
T 1040 1430 5 8 1 1 0 0 1
pinnumber=25
T 1040 1430 5 8 1 1 0 0 1
pinseq=25
T 960 1400 3 8 1 1 0 6 1
pinlabel=TXD
}
P 1300 -400 1000 -400 1 0 0
{
T 1350 -450 5 8 0 1 0 0 1
pintype=out
T 1040 -370 5 8 1 1 0 0 1
pinnumber=16
T 1040 -370 5 8 1 1 0 0 1
pinseq=16
T 960 -400 3 8 1 1 0 6 1
pinlabel=TXDEN
}
P 1300 -600 1000 -600 1 0 0
{
T 1350 -650 5 8 0 1 0 0 1
pintype=oc
T 1040 -570 5 8 1 1 0 0 1
pinnumber=12
T 1040 -570 5 8 1 1 0 0 1
pinseq=12
T 960 -600 3 8 1 1 0 6 1
pinlabel=TXLED
}
P -1300 1000 -1000 1000 1 0 0
{
T -1350 950 5 8 0 1 0 6 1
pintype=io
T -1040 1030 5 8 1 1 0 6 1
pinnumber=8
T -1040 1030 5 8 1 1 0 6 1
pinseq=8
T -960 1000 3 8 1 1 0 0 1
pinlabel=USBDM
}
P -1300 800 -1000 800 1 0 0
{
T -1350 750 5 8 0 1 0 6 1
pintype=io
T -1040 830 5 8 1 1 0 6 1
pinnumber=7
T -1040 830 5 8 1 1 0 6 1
pinseq=7
T -960 800 3 8 1 1 0 0 1
pinlabel=USBDP
}
P -1300 2000 -1000 2000 1 0 0
{
T -1350 1950 5 8 0 1 0 6 1
pintype=pwr
T -1040 2030 5 8 1 1 0 6 1
pinnumber=3
T -1040 2030 5 8 1 1 0 6 1
pinseq=3
T -960 2000 3 8 1 1 0 0 1
pinlabel=VCC1
}
P -1300 1800 -1000 1800 1 0 0
{
T -1350 1750 5 8 0 1 0 6 1
pintype=pwr
T -1040 1830 5 8 1 1 0 6 1
pinnumber=26
T -1040 1830 5 8 1 1 0 6 1
pinseq=26
T -960 1800 3 8 1 1 0 0 1
pinlabel=VCC2
}
P 1300 1800 1000 1800 1 0 0
{
T 1350 1750 5 8 0 1 0 0 1
pintype=in
T 1040 1830 5 8 1 1 0 0 1
pinnumber=13
T 1040 1830 5 8 1 1 0 0 1
pinseq=13
T 960 1800 3 8 1 1 0 6 1
pinlabel=VCIO
}
P -1300 -200 -1000 -200 1 0 0
{
T -1350 -250 5 8 0 1 0 6 1
pintype=in
T -1040 -170 5 8 1 1 0 6 1
pinnumber=27
T -1040 -170 5 8 1 1 0 6 1
pinseq=27
T -960 -200 3 8 1 1 0 0 1
pinlabel=XTIN
}
P -1300 -400 -1000 -400 1 0 0
{
T -1350 -450 5 8 0 1 0 6 1
pintype=out
T -1040 -370 5 8 1 1 0 6 1
pinnumber=28
T -1040 -370 5 8 1 1 0 6 1
pinseq=28
T -960 -400 3 8 1 1 0 0 1
pinlabel=XTOUT
}
